<svg width="1200" height="500" viewBox="0 0 1200 500" fill="none" xmlns="http://www.w3.org/2000/svg">
<rect width="1200" height="500" fill="#E7E7E7"/>
<mask id="mask0_2405_10300" style="mask-type:alpha" maskUnits="userSpaceOnUse" x="0" y="0" width="1200" height="500">
<rect width="1200" height="500" fill="#F4C522"/>
</mask>
<g mask="url(#mask0_2405_10300)">
<g opacity="0.3">
<g opacity="0.75">
<path d="M250.411 301.756L312.217 427.628L271.869 444.277L250.411 301.756ZM312.033 427.628L250.594 302.671L271.869 444.094L312.033 427.628Z" fill="white"/>
<path d="M442.979 269.009L442.612 269.192L345.41 318.955L250.225 302.306L250.592 302.306L442.979 269.009ZM345.41 318.772L442.245 269.192L250.959 302.123L345.41 318.772Z" fill="white"/>
<path d="M247.842 301.757C247.842 303.221 249.126 304.502 250.593 304.502C252.06 304.502 253.344 303.221 253.344 301.757C253.344 300.294 252.06 299.013 250.593 299.013C249.126 299.013 247.842 300.294 247.842 301.757Z" fill="white"/>
<path d="M339.904 318.771C339.904 321.881 342.288 324.26 345.406 324.26C348.524 324.26 350.908 321.881 350.908 318.771C350.908 315.661 348.524 313.283 345.406 313.283C342.288 313.283 339.904 315.844 339.904 318.771Z" fill="white"/>
<path d="M306.715 427.629C306.715 430.739 309.099 433.117 312.217 433.117C315.335 433.117 317.719 430.739 317.719 427.629C317.719 424.518 315.335 422.14 312.217 422.14C309.099 422.14 306.715 424.518 306.715 427.629Z" fill="white"/>
<path d="M269.298 444.095C269.298 445.558 270.399 446.656 271.866 446.656C273.333 446.656 274.434 445.558 274.434 444.095C274.434 442.631 273.333 441.533 271.866 441.533C270.399 441.533 269.298 442.814 269.298 444.095Z" fill="white"/>
<path d="M275.716 355.729C275.716 356.461 276.266 357.01 276.999 357.01C277.733 357.01 278.283 356.461 278.283 355.729C278.283 354.997 277.733 354.448 276.999 354.448C276.266 354.631 275.716 355.18 275.716 355.729Z" fill="white"/>
<path d="M331.108 316.577C331.108 317.308 331.658 317.857 332.392 317.857C333.126 317.857 333.676 317.308 333.676 316.577C333.676 315.845 333.126 315.296 332.392 315.296C331.658 315.113 331.108 315.845 331.108 316.577Z" fill="white"/>
<path d="M260.128 324.444C260.128 325.175 260.678 325.724 261.412 325.724C262.145 325.724 262.695 325.175 262.695 324.444C262.695 323.712 262.145 323.163 261.412 323.163C260.678 322.98 260.128 323.712 260.128 324.444Z" fill="white"/>
</g>
<g opacity="0.75">
<path d="M155.957 -101.837L155.774 -101.654L51.2357 52.3926L51.2357 52.0266L72.5101 -54.4523L155.957 -101.837ZM51.6025 51.8437L155.59 -101.471L72.8769 -54.2693L51.6025 51.8437Z" fill="white"/>
<g opacity="0.2">
<path d="M51.4219 52.0265L68.1113 222.539L-109.786 179.911L-109.603 179.911L51.4219 52.0265Z" fill="white"/>
</g>
<path d="M246.008 149.175L67.9266 222.539L51.2372 52.0265L51.4206 52.0265L246.008 149.175ZM68.11 222.356L245.824 149.175L51.604 52.2094L68.11 222.356Z" fill="white"/>
<path d="M242.708 149.176C242.708 151.005 244.175 152.469 246.009 152.469C247.843 152.469 249.311 151.005 249.311 149.176C249.311 147.346 247.843 145.882 246.009 145.882C244.175 145.882 242.708 147.346 242.708 149.176Z" fill="white"/>
<path d="M61.6902 223.089C61.6902 226.382 64.2577 228.943 67.5589 228.943C70.8601 228.943 73.4277 226.382 73.4277 223.089C73.4277 219.796 70.8601 217.234 67.5589 217.234C64.2578 217.234 61.6902 219.796 61.6902 223.089Z" fill="white"/>
<path d="M120.378 199.487C120.378 201.316 121.846 202.963 123.863 202.963C125.697 202.963 127.348 201.499 127.348 199.487C127.348 197.657 125.88 196.01 123.863 196.01C121.846 196.01 120.378 197.657 120.378 199.487Z" fill="white"/>
<path d="M186.586 120.818C186.586 122.281 187.686 123.379 189.153 123.379C190.62 123.379 191.721 122.281 191.721 120.818C191.721 119.354 190.62 118.256 189.153 118.256C187.869 118.256 186.586 119.354 186.586 120.818Z" fill="white"/>
</g>
<g opacity="0.75">
<path d="M441.88 266.448C443.714 266.448 444.998 267.911 444.998 269.558C444.998 271.387 443.531 272.668 441.88 272.668C440.23 272.668 438.762 271.204 438.762 269.558C438.762 267.728 440.046 266.448 441.88 266.448Z" fill="white"/>
</g>
<path d="M146.975 333.592L71.9641 348.594L95.2558 313.65L146.975 333.592ZM72.1475 348.411L146.791 333.592L95.4393 313.833L72.1475 348.411Z" fill="white"/>
<path d="M66.8287 223.82L67.0121 224.003L146.791 333.592L146.608 333.592L95.0723 313.65L66.8287 223.82ZM146.608 333.409L67.0121 224.369L95.2557 313.65L146.608 333.409Z" fill="white"/>
<path d="M215.014 469.525L181.818 588.994L165.129 590.641L215.014 469.525ZM181.635 588.811L214.647 470.074L165.129 590.458L181.635 588.811Z" fill="white"/>
<path d="M215.014 469.342L165.129 590.641L65.3595 575.638L215.014 469.342ZM165.129 590.458L215.014 469.525L65.5428 575.455L165.129 590.458Z" fill="white"/>
<path d="M215.018 465.867C217.035 465.867 218.686 467.514 218.686 469.526C218.686 471.539 217.035 473.186 215.018 473.186C213 473.186 211.35 471.539 211.35 469.526C211.35 467.514 213 465.867 215.018 465.867Z" fill="white"/>
<path d="M146.792 329.019C149.36 329.019 151.377 331.031 151.377 333.592C151.377 336.154 149.36 338.166 146.792 338.166C144.224 338.166 142.207 336.154 142.207 333.592C142.207 331.031 144.224 329.019 146.792 329.019Z" fill="white"/>
<path d="M71.9629 346.581C73.0633 346.581 73.7969 347.496 73.7969 348.411C73.7969 349.508 72.8799 350.24 71.9629 350.24C70.8625 350.24 70.1289 349.325 70.1289 348.411C70.1289 347.496 71.0459 346.581 71.9629 346.581Z" fill="white"/>
<path d="M62.7941 413.908C63.3443 413.908 63.8945 414.274 63.8945 415.006C63.8945 415.555 63.5277 416.104 62.7941 416.104C62.2439 416.104 61.6937 415.738 61.6937 415.006C61.6937 414.457 62.2439 413.908 62.7941 413.908Z" fill="white"/>
<path d="M183.654 490.198C184.755 490.198 185.488 491.113 185.488 492.028C185.488 493.126 184.571 493.857 183.654 493.857C182.554 493.857 181.82 492.943 181.82 492.028C181.82 491.113 182.737 490.198 183.654 490.198Z" fill="white"/>
<path d="M131.753 335.422C132.303 335.422 132.854 335.971 132.854 336.519C132.854 337.068 132.303 337.617 131.753 337.617C131.203 337.617 130.653 337.068 130.653 336.519C130.836 335.971 131.203 335.422 131.753 335.422Z" fill="white"/>
<path d="M139.275 329.75C139.825 329.75 140.375 330.299 140.375 330.848C140.375 331.396 139.825 331.945 139.275 331.945C138.724 331.945 138.174 331.396 138.174 330.848C138.174 330.299 138.724 329.75 139.275 329.75Z" fill="white"/>
<path d="M276.453 295.354C277.92 294.988 279.204 296.269 278.837 297.733C278.654 298.465 278.103 299.013 277.37 299.196C275.903 299.562 274.619 298.282 274.986 296.818C275.169 295.903 275.719 295.354 276.453 295.354Z" fill="white"/>
<path d="M258.851 360.304C260.319 359.938 261.602 361.219 261.236 362.682C261.052 363.414 260.502 363.963 259.768 364.146C258.301 364.512 257.017 363.231 257.384 361.767C257.568 361.036 258.118 360.487 258.851 360.304Z" fill="white"/>
<path d="M95.2548 308.891C97.8224 308.891 99.8398 310.904 99.8398 313.465C99.8398 316.027 97.8224 318.039 95.2548 318.039C92.6873 318.039 90.6699 316.027 90.6699 313.465C90.6699 311.087 92.6873 308.891 95.2548 308.891Z" fill="white"/>
<path d="M303.048 311.088C303.598 311.088 303.965 311.454 303.965 312.003C303.965 312.552 303.598 312.918 303.048 312.918C302.498 312.918 302.131 312.552 302.131 312.003C302.131 311.454 302.498 311.088 303.048 311.088Z" fill="white"/>
<path d="M299.926 307.246C300.293 307.246 300.477 307.429 300.477 307.795C300.477 308.161 300.293 308.344 299.926 308.344C299.56 308.344 299.376 308.161 299.376 307.795C299.376 307.429 299.743 307.246 299.926 307.246Z" fill="white"/>
</g>
<g opacity="0.75">
<path d="M229.686 462.94L251.51 413.542L251.51 413.725L272.234 544.537L272.051 544.354L229.686 462.94ZM251.51 413.725L229.686 462.757L272.051 543.805L251.51 413.725Z" fill="white"/>
<path d="M229.686 462.757L272.418 544.537L272.235 544.354L233.17 503.19L229.686 462.757ZM271.868 543.988L229.686 463.123L233.17 503.007L271.868 543.988Z" fill="white"/>
<path d="M28.6783 304.137C29.4119 303.405 29.4119 302.307 28.6783 301.575C27.9447 300.844 26.8443 300.844 26.1107 301.575C25.3771 302.307 25.3771 303.405 26.1107 304.137C26.8443 304.869 27.9447 304.869 28.6783 304.137Z" fill="white"/>
<path d="M252.978 415.189C253.895 414.275 253.895 412.994 252.978 412.262C252.061 411.347 250.777 411.347 250.044 412.262C249.127 413.177 249.127 414.458 250.044 415.189C250.777 415.921 252.061 415.921 252.978 415.189Z" fill="white"/>
<path d="M229.688 458.366C227.156 458.366 225.103 460.414 225.103 462.94C225.103 465.466 227.156 467.514 229.688 467.514C232.221 467.514 234.273 465.466 234.273 462.94C234.273 460.414 232.221 458.366 229.688 458.366Z" fill="white"/>
<path d="M236.287 506.116C238.121 504.287 238.121 501.542 236.287 499.713C234.453 497.883 231.702 497.883 229.868 499.713C228.034 501.542 228.034 504.287 229.868 506.116C231.702 507.946 234.453 507.946 236.287 506.116Z" fill="white"/>
</g>
<path d="M256.83 191.619L271.319 99.7765L286.541 134.355L256.83 191.619ZM271.319 100.142L256.83 191.436L286.541 134.538L271.319 100.142Z" fill="white"/>
<path d="M219.05 36.4752L243.992 -1.21318L219.05 36.6582L219.05 36.4752Z" fill="white"/>
<path d="M219.053 36.6582L243.996 -1.21318L304.518 1.16525L304.334 1.16525L219.053 36.6582ZM243.996 -1.03022L219.053 36.6582L304.151 1.34816L243.996 -1.03022Z" fill="white"/>
<path d="M219.053 36.6578L304.518 1.34773L271.506 100.143L219.053 36.6578ZM304.334 1.34773L219.053 36.6578L271.322 99.9597L304.334 1.34773Z" fill="white"/>
<path d="M302.498 2.99312C301.581 2.07835 301.581 0.431722 302.498 -0.483045C303.415 -1.39781 305.065 -1.39781 305.982 -0.483044C306.899 0.431723 306.899 2.07835 305.982 2.99312C305.065 4.09084 303.598 4.09084 302.498 2.99312Z" fill="white"/>
<path d="M242.156 0.616659C241.239 -0.298109 241.239 -1.94468 242.156 -2.85945C243.073 -3.77421 244.723 -3.77421 245.64 -2.85945C246.557 -1.94468 246.557 -0.298108 245.64 0.616659C244.723 1.53143 243.256 1.53143 242.156 0.616659Z" fill="white"/>
<path d="M217.218 38.3037C216.301 37.3889 216.301 35.7423 217.218 34.8276C218.135 33.9128 219.786 33.9128 220.703 34.8276C221.62 35.7423 221.62 37.3889 220.703 38.3037C219.786 39.4014 218.319 39.4014 217.218 38.3037Z" fill="white"/>
<path d="M269.12 102.155C267.836 100.874 267.836 99.0445 269.12 97.7639C270.404 96.4832 272.238 96.4832 273.522 97.7639C274.805 99.0445 274.805 100.874 273.522 102.155C272.421 103.435 270.404 103.435 269.12 102.155Z" fill="white"/>
<path d="M284.341 136.733C283.057 135.452 283.057 133.44 284.341 132.159C285.625 130.878 287.642 130.878 288.926 132.159C290.21 133.44 290.21 135.452 288.926 136.733C287.642 138.014 285.625 138.014 284.341 136.733Z" fill="white"/>
<path d="M25.7446 140.759C27.5786 142.588 30.3296 142.588 32.1636 140.759C33.9976 138.929 33.9976 136.185 32.1636 134.355C30.3296 132.526 27.5786 132.526 25.7446 134.355C24.094 136.002 24.094 138.929 25.7446 140.759Z" fill="white"/>
<path d="M24.6434 304.868C25.7438 305.966 27.211 305.966 28.3114 304.868C29.4118 303.77 29.4118 302.307 28.3114 301.209C27.211 300.111 25.7438 300.111 24.6434 301.209C23.7264 302.307 23.7264 303.953 24.6434 304.868Z" fill="white"/>
<path d="M-61.1864 275.595L-80.8102 225.283L-80.6268 225.283L26.6621 303.221L26.4787 303.221L-61.1864 275.595ZM-80.6268 225.465L-61.1864 275.595L26.2953 303.038L-80.6268 225.465Z" fill="white"/>
<path d="M-61.3696 275.413L-61.1862 275.413L26.8457 303.039L26.4789 303.039L-30.3751 301.392L-61.3696 275.413ZM26.2955 303.039L-60.8194 275.596L-30.1917 301.392L26.2955 303.039Z" fill="white"/>
<path d="M-80.6254 225.283L-91.9962 108.559L29.7813 137.648L-80.6254 225.283ZM-91.9962 108.742L-80.6254 225.283L29.5979 138.014L-91.9962 108.742Z" fill="white"/>
<path d="M-91.9961 108.741L-59.5343 73.0652L29.9648 138.014L29.7814 138.014L-91.9961 108.741ZM-59.5343 73.0652L-91.9961 108.558L29.4146 137.648L-59.5343 73.0652Z" fill="white"/>
<g opacity="0.75">
<path d="M318.821 146.246C317.537 147.527 317.537 149.356 318.821 150.637C320.105 151.918 321.939 151.918 323.223 150.637C324.506 149.356 324.506 147.527 323.223 146.246C321.939 144.966 319.922 144.966 318.821 146.246Z" fill="white"/>
<path d="M315.523 153.931C318.641 157.041 323.409 157.041 326.527 153.931C329.645 150.821 329.645 146.064 326.527 142.954C323.409 139.844 318.641 139.844 315.523 142.954C312.405 145.881 312.405 150.821 315.523 153.931ZM316.257 143.869C318.824 141.307 322.859 141.307 325.426 143.869C327.994 146.43 327.994 150.455 325.426 153.016C322.859 155.578 318.824 155.578 316.257 153.016C313.872 150.455 313.872 146.43 316.257 143.869Z" fill="white"/>
</g>
<g opacity="0.75">
<path d="M451.975 391.221L451.791 391.221L411.443 390.123L424.098 379.878L451.975 391.221ZM411.627 389.94L451.424 391.038L424.098 379.695L411.627 389.94Z" fill="white"/>
<path d="M482.967 300.476L451.789 391.221L424.279 379.695L482.967 300.476ZM451.789 391.221L482.6 301.025L424.279 379.878L451.789 391.221Z" fill="white"/>
<path d="M384.297 165.641L258.851 189.791L259.035 189.608L321.024 148.443L384.297 165.641ZM259.035 189.608L383.747 165.641L320.841 148.443L259.035 189.608Z" fill="white"/>
<path d="M480.214 297.732C478.747 299.196 478.747 301.757 480.214 303.404C481.681 304.868 484.249 304.868 485.9 303.404C487.367 301.94 487.367 299.379 485.9 297.732C484.249 296.086 481.681 296.086 480.214 297.732Z" fill="white"/>
<path d="M449.036 388.477C447.569 389.941 447.569 392.32 449.036 393.783C450.503 395.247 452.887 395.247 454.355 393.783C455.822 392.32 455.822 389.941 454.355 388.477C452.887 387.014 450.503 387.014 449.036 388.477Z" fill="white"/>
<path d="M424.279 377.867C423.266 377.867 422.445 378.686 422.445 379.696C422.445 380.707 423.266 381.526 424.279 381.526C425.292 381.526 426.113 380.707 426.113 379.696C426.113 378.686 425.292 377.867 424.279 377.867Z" fill="white"/>
<path d="M409.972 388.478C409.055 389.393 409.055 390.856 409.972 391.771C410.889 392.686 412.356 392.686 413.273 391.771C414.19 390.856 414.19 389.393 413.273 388.478C412.356 387.563 410.889 387.563 409.972 388.478Z" fill="white"/>
<path d="M255.731 186.497C253.897 188.326 253.897 191.253 255.731 193.083C257.565 194.912 260.499 194.912 262.333 193.083C264.167 191.253 264.167 188.326 262.333 186.497C260.316 184.667 257.382 184.667 255.731 186.497Z" fill="white"/>
<path d="M381.546 163.078C380.262 164.359 380.262 166.554 381.546 168.018C382.83 169.299 385.031 169.299 386.498 168.018C387.782 166.737 387.782 164.542 386.498 163.078C385.214 161.798 383.013 161.798 381.546 163.078Z" fill="white"/>
</g>
<g opacity="0.3">
<g opacity="0.75">
<path d="M250.779 39.0359L217.584 148.076L217.584 147.893L155.962 22.3871L156.145 22.3871L250.779 39.0359ZM217.584 147.71L250.779 39.0359L156.145 22.5701L217.584 147.71Z" fill="white"/>
<path d="M348.35 -10.7275L347.983 -10.5446L250.781 39.2187L155.596 22.57L155.963 22.57L348.35 -10.7275ZM250.781 39.0358L347.616 -10.5446L156.33 22.387L250.781 39.0358Z" fill="white"/>
<path d="M153.213 22.0213C153.213 23.485 154.497 24.7656 155.964 24.7656C157.431 24.7656 158.715 23.485 158.715 22.0213C158.715 20.5577 157.431 19.277 155.964 19.277C154.497 19.277 153.213 20.5577 153.213 22.0213Z" fill="white"/>
<path d="M245.275 39.0368C245.275 42.147 247.66 44.5254 250.777 44.5254C253.895 44.5254 256.279 42.147 256.279 39.0368C256.279 35.9266 253.895 33.5482 250.777 33.5482C247.843 33.5482 245.275 36.1095 245.275 39.0368Z" fill="white"/>
<path d="M212.086 147.894C212.086 151.004 214.47 153.383 217.588 153.383C220.706 153.383 223.09 151.004 223.09 147.894C223.09 144.784 220.706 142.406 217.588 142.406C214.47 142.406 212.086 144.784 212.086 147.894Z" fill="white"/>
<path d="M181.087 76.1764C181.087 76.9082 181.637 77.457 182.37 77.457C183.104 77.457 183.654 76.9082 183.654 76.1764C183.654 75.4446 183.104 74.8957 182.37 74.8957C181.637 74.8957 181.087 75.4446 181.087 76.1764Z" fill="white"/>
<path d="M236.479 36.8405C236.479 37.5723 237.029 38.1211 237.763 38.1211C238.497 38.1211 239.047 37.5723 239.047 36.8405C239.047 36.1086 238.497 35.5598 237.763 35.5598C237.029 35.3768 236.479 36.1086 236.479 36.8405Z" fill="white"/>
<path d="M165.499 44.7076C165.499 45.4394 166.049 45.9883 166.783 45.9883C167.516 45.9883 168.066 45.4394 168.066 44.7076C168.066 43.9758 167.516 43.4269 166.783 43.4269C166.049 43.2439 165.499 43.9758 165.499 44.7076Z" fill="white"/>
</g>
<g opacity="0.75">
<path d="M189.709 89.5323C190.626 89.5323 191.543 90.2642 191.543 91.3619C191.543 92.2766 190.809 93.1914 189.709 93.1914C188.792 93.1914 187.875 92.4596 187.875 91.3619C187.875 90.2642 188.792 89.5323 189.709 89.5323Z" fill="white"/>
<path d="M165.502 87.5212C166.786 87.5212 167.703 88.436 167.703 89.7167C167.703 90.9974 166.786 91.9121 165.502 91.9121C164.219 91.9121 163.302 90.9974 163.302 89.7167C163.302 88.436 164.219 87.5212 165.502 87.5212Z" fill="white"/>
</g>
<path d="M58.2115 393.601C58.5783 393.601 58.7617 393.784 58.7617 394.15C58.7617 394.516 58.5783 394.699 58.2115 394.699C57.8447 394.699 57.6613 394.516 57.6613 394.15C57.6613 393.784 57.8447 393.601 58.2115 393.601Z" fill="white"/>
</g>
<path d="M15.1076 277.973L29.5962 186.13L44.8184 220.708L15.1076 277.973ZM29.5962 186.313L15.1076 277.607L44.8184 220.708L29.5962 186.313Z" fill="white"/>
<path d="M27.3992 188.509C26.1154 187.228 26.1154 185.399 27.3992 184.118C28.683 182.837 30.517 182.837 31.8008 184.118C33.0846 185.399 33.0846 187.228 31.8008 188.509C30.517 189.606 28.683 189.606 27.3992 188.509Z" fill="white"/>
<path d="M42.6201 223.086C41.3363 221.806 41.3363 219.793 42.6201 218.513C43.9039 217.232 45.9213 217.232 47.2051 218.513C48.4889 219.793 48.4889 221.806 47.2051 223.086C45.9213 224.367 43.9039 224.367 42.6201 223.086Z" fill="white"/>
<g opacity="0.75">
<path d="M76.9148 232.601C75.631 233.882 75.631 235.712 76.9148 236.992C78.1986 238.273 80.0326 238.273 81.3164 236.992C82.6002 235.712 82.6002 233.882 81.3164 232.601C80.216 231.321 78.1986 231.321 76.9148 232.601Z" fill="white"/>
<path d="M73.6166 240.103C76.7344 243.213 81.5028 243.213 84.6206 240.103C87.7384 236.992 87.7384 232.236 84.6206 229.125C81.5028 226.015 76.7344 226.015 73.6166 229.125C70.6823 232.236 70.6823 237.175 73.6166 240.103ZM74.5336 230.04C77.1012 227.479 81.136 227.479 83.7036 230.04C86.2712 232.602 86.2712 236.627 83.7036 239.188C81.136 241.749 77.1012 241.749 74.5336 239.188C71.966 236.809 71.966 232.602 74.5336 230.04Z" fill="white"/>
<path d="M49.2196 50.0139C47.9358 51.2945 47.9358 53.1241 49.2196 54.4047C50.5033 55.6854 52.3373 55.6854 53.6211 54.4047C54.9049 53.1241 54.9049 51.2945 53.6211 50.0139C52.3373 48.7332 50.32 48.7332 49.2196 50.0139Z" fill="white"/>
<path d="M45.9213 57.515C49.0391 60.6252 53.8075 60.6252 56.9253 57.515C60.0431 54.4048 60.0431 49.648 56.9253 46.5378C53.8075 43.4276 49.0391 43.4276 45.9213 46.5378C42.8035 49.648 42.8035 54.5877 45.9213 57.515ZM46.8383 47.6355C49.4059 45.0742 53.4407 45.0742 56.0083 47.6355C58.5759 50.1969 58.5759 54.2218 56.0083 56.7832C53.4407 59.3445 49.4059 59.3445 46.8383 56.7832C44.2707 54.2218 44.2707 50.0139 46.8383 47.6355Z" fill="white"/>
</g>
<g opacity="0.75">
<path d="M210.246 477.576L210.063 477.576L169.715 476.478L182.369 466.233L210.246 477.576ZM169.898 476.295L209.696 477.393L182.369 466.05L169.898 476.295Z" fill="white"/>
<path d="M142.391 251.994L16.9452 276.144L17.1285 275.961L79.1177 234.797L142.391 251.994ZM17.3119 275.961L142.024 251.994L79.1177 234.797L17.3119 275.961Z" fill="white"/>
<path d="M142.391 251.812L64.2623 416.836L64.2623 416.653L17.1285 275.779L142.391 251.812ZM64.2623 416.653L142.207 251.995L17.1285 275.962L64.2623 416.653Z" fill="white"/>
<path d="M64.2637 416.836L-57.5138 366.341L17.1299 275.779L64.2637 416.836ZM-57.3304 366.341L64.2637 416.653L17.3133 275.962L-57.3304 366.341Z" fill="white"/>
<path d="M169.902 476.294L42.2561 493.492L64.0806 416.652L169.902 476.294ZM42.4395 493.492L169.719 476.294L64.2641 416.834L42.4395 493.492Z" fill="white"/>
<path d="M207.313 474.833C205.846 476.296 205.846 478.675 207.313 480.138C208.781 481.602 211.165 481.602 212.632 480.138C214.099 478.675 214.099 476.296 212.632 474.833C211.165 473.369 208.781 473.369 207.313 474.833Z" fill="white"/>
<path d="M181.275 464.77C180.541 465.502 180.541 466.6 181.275 467.332C182.008 468.064 183.109 468.064 183.842 467.332C184.576 466.6 184.576 465.502 183.842 464.77C183.109 464.039 181.825 464.039 181.275 464.77Z" fill="white"/>
<path d="M168.249 474.647C167.332 475.562 167.332 477.026 168.249 477.941C169.166 478.855 170.634 478.855 171.551 477.941C172.468 477.026 172.468 475.562 171.551 474.647C170.634 473.733 169.166 473.733 168.249 474.647Z" fill="white"/>
<path d="M61.6941 414.273C60.2269 415.737 60.2269 417.933 61.6941 419.396C63.1613 420.86 65.3621 420.86 66.8293 419.396C68.2965 417.933 68.2965 415.737 66.8293 414.273C65.3621 412.81 63.1613 412.81 61.6941 414.273Z" fill="white"/>
<path d="M39.866 490.932C38.3988 492.395 38.3988 494.591 39.866 496.054C41.3332 497.518 43.534 497.518 45.0012 496.054C46.4684 494.591 46.4684 492.395 45.0012 490.932C43.534 489.651 41.3332 489.651 39.866 490.932Z" fill="white"/>
<path d="M13.8229 272.668C11.9889 274.498 11.9889 277.425 13.8229 279.255C15.6569 281.084 18.5913 281.084 20.4253 279.255C22.2593 277.425 22.2593 274.498 20.4253 272.668C18.5913 270.839 15.6569 270.839 13.8229 272.668Z" fill="white"/>
<path d="M142.209 248.518C140.284 248.518 138.724 250.075 138.724 251.994C138.724 253.914 140.284 255.47 142.209 255.47C144.133 255.47 145.693 253.914 145.693 251.994C145.693 250.075 144.133 248.518 142.209 248.518Z" fill="white"/>
</g>
<path d="M92.8746 92.8262L103.879 61.5412L120.201 78.1899L92.8746 92.8262ZM103.879 61.5412L92.8746 92.8262L120.201 78.1899L103.879 61.5412Z" fill="white"/>
<path d="M132.857 101.607L120.202 78.1893L141.66 77.2746L132.857 101.607ZM120.202 78.1893L132.857 101.607L141.66 77.2746L120.202 78.1893Z" fill="white"/>
<path d="M132.855 101.607L92.8743 92.8256L120.201 78.1893L132.855 101.607ZM92.8743 92.8256L132.855 101.607L120.201 78.1893L92.8743 92.8256Z" fill="white"/>
<path d="M92.8732 92.8262L68.481 71.4206L103.694 61.5412L92.8732 92.8262ZM68.6644 71.4206L93.0566 92.8262L104.061 61.5412L68.6644 71.4206Z" fill="white"/>
<path d="M68.6642 71.4199L50.691 52.2098L103.877 61.7234L68.6642 71.4199ZM50.691 52.0268L68.6642 71.237L103.877 61.3575L50.691 52.0268Z" fill="white"/>
<path d="M120.201 78.1895L103.879 61.5407L110.114 52.3931L120.201 78.1895ZM103.879 61.5407L120.201 78.1895L110.114 52.3931L103.879 61.5407Z" fill="white"/>
<path d="M103.88 61.541L50.6937 52.0274L110.115 52.3933L103.88 61.541ZM50.6937 52.0274L103.88 61.541L110.115 52.3933L50.6937 52.0274Z" fill="white"/>
<path d="M103.874 60.6258C103.324 60.6258 102.957 60.9917 102.957 61.5406C102.957 62.0894 103.324 62.4553 103.874 62.4553C104.424 62.4553 104.791 62.0894 104.791 61.5406C104.791 60.9917 104.424 60.6258 103.874 60.6258Z" fill="white"/>
<path d="M92.8745 91.5441C92.1409 91.5441 91.5906 92.093 91.5906 92.8248C91.5906 93.0077 91.5906 93.3737 91.774 93.5566L91.9575 93.7395C92.1409 93.9225 92.5076 94.1055 92.691 94.1055C93.0578 94.1055 93.2412 93.9225 93.4246 93.9225C93.608 93.9225 93.608 93.7395 93.608 93.7395C93.7914 93.5566 93.7915 93.3736 93.7915 93.0077C94.1583 92.093 93.6081 91.5441 92.8745 91.5441Z" fill="white"/>
<path d="M69.5824 70.5053C69.2156 70.1394 69.0322 69.9564 68.6654 69.9564C68.2986 69.9564 67.9318 70.1394 67.7484 70.3224C67.565 70.5053 67.3816 70.8712 67.3816 71.2371C67.3816 71.9689 67.9318 72.5178 68.6654 72.5178C69.0322 72.5178 69.399 72.3348 69.5824 72.1519C69.7658 71.9689 69.9492 71.603 69.9492 71.2371C69.7658 71.0542 69.7658 70.6883 69.5824 70.5053Z" fill="white"/>
<path d="M120.201 76.9096C119.467 76.9096 118.917 77.4584 118.917 78.1903C118.917 78.9221 119.467 79.4709 120.201 79.4709C120.934 79.4709 121.484 78.9221 121.484 78.1903C121.484 77.4584 120.934 76.9096 120.201 76.9096Z" fill="white"/>
<path d="M141.657 75.262C140.556 75.262 139.456 76.1767 139.456 77.4574C139.456 78.5551 140.373 79.6528 141.657 79.6528C142.757 79.6528 143.857 78.738 143.857 77.4574C143.857 76.1767 142.757 75.262 141.657 75.262Z" fill="white"/>
<path d="M132.852 99.4116C131.752 99.4116 130.651 100.326 130.651 101.607C130.651 102.705 131.568 103.802 132.852 103.802C133.952 103.802 135.053 102.888 135.053 101.607C135.053 100.509 134.136 99.4116 132.852 99.4116Z" fill="white"/>
<path d="M110.115 51.2963C109.381 51.2963 108.831 51.8452 108.831 52.577C108.831 53.3088 109.381 53.8577 110.115 53.8577C110.848 53.8577 111.398 53.3088 111.398 52.577C111.398 51.8452 110.848 51.2963 110.115 51.2963Z" fill="white"/>
<path d="M50.6869 50.9291C49.9533 50.9291 49.4031 51.478 49.4031 52.2098C49.4031 52.9417 49.9533 53.4905 50.6869 53.4905C51.4205 53.4905 51.9707 52.9417 51.9707 52.2098C51.9707 51.478 51.4205 50.9291 50.6869 50.9291Z" fill="white"/>
<path d="M398.601 66.6621L378.06 24.3999L411.256 24.5828L398.601 66.6621ZM378.06 24.2169L398.601 66.6621L411.256 24.5828L378.06 24.2169Z" fill="white"/>
<path d="M447.572 35.3772L411.259 24.583L431.8 2.26261L447.572 35.3772ZM411.259 24.583L447.572 35.3772L431.983 2.26261L411.259 24.583Z" fill="white"/>
<path d="M447.572 35.3771L398.605 66.4791L411.259 24.5828L447.572 35.3771ZM398.605 66.6621L447.572 35.56L411.259 24.7658L398.605 66.6621Z" fill="white"/>
<path d="M398.604 66.6619L352.57 69.4062L378.063 24.2167L398.604 66.6619ZM352.57 69.4062L398.604 66.6619L378.063 24.3997L352.57 69.4062Z" fill="white"/>
<path d="M379.347 127.586L352.57 69.4068L398.604 66.6625L379.347 127.586ZM352.57 69.4068L379.347 127.586L398.604 66.6625L352.57 69.4068Z" fill="white"/>
<path d="M377.15 23.3018C376.6 23.8506 376.6 24.7654 377.15 25.1313C377.7 25.6802 378.617 25.6802 378.984 25.1313C379.534 24.5825 379.534 23.6677 378.984 23.3018C378.434 22.7529 377.7 22.7529 377.15 23.3018Z" fill="white"/>
<path d="M397.32 65.3833C396.586 66.1151 396.586 67.2128 397.32 67.7617C398.053 68.4935 399.154 68.4935 399.704 67.7617C400.437 67.0299 400.437 65.9321 399.704 65.3833C399.154 64.6514 398.053 64.6514 397.32 65.3833Z" fill="white"/>
<path d="M351.292 68.1274C350.559 68.8592 350.559 69.957 351.292 70.5058C352.026 71.2376 353.126 71.2376 353.676 70.5058C354.41 69.774 354.41 68.6763 353.676 68.1274C352.943 67.5785 352.026 67.5785 351.292 68.1274Z" fill="white"/>
<path d="M412.542 23.4865C411.809 22.7547 410.708 22.7547 410.158 23.4865C409.425 24.2184 409.425 25.3161 410.158 25.865C410.892 26.4138 411.992 26.5968 412.542 25.865C413.093 25.1332 413.093 24.0354 412.542 23.4865Z" fill="white"/>
<path d="M429.601 0.250682C428.501 1.3484 428.501 3.36088 429.601 4.64155C430.702 5.73927 432.719 5.73927 434.003 4.64155C435.103 3.54383 435.103 1.53136 434.003 0.250682C432.719 -1.02999 430.885 -1.02999 429.601 0.250682Z" fill="white"/>
<path d="M445.373 33.3659C444.272 34.4636 444.272 36.4761 445.373 37.7568C446.473 38.8545 448.491 38.8545 449.774 37.7568C450.875 36.6591 450.875 34.6465 449.774 33.3659C448.491 32.0852 446.473 32.0852 445.373 33.3659Z" fill="white"/>
<path d="M377.15 125.391C376.05 126.489 376.05 128.502 377.15 129.782C378.25 130.88 380.268 130.88 381.552 129.782C382.652 128.684 382.652 126.672 381.552 125.391C380.268 124.294 378.25 124.294 377.15 125.391Z" fill="white"/>
</g>
</svg>
