<svg width="24" height="24" viewBox="0 0 24 24" fill="none" xmlns="http://www.w3.org/2000/svg">
<g clip-path="url(#clip0_748_5639)">
<path d="M24 12C24 17.9897 19.6116 22.9542 13.875 23.8542V15.4688H16.6711L17.2031 12H13.875V9.74906C13.875 8.79984 14.34 7.875 15.8306 7.875H17.3438V4.92188C17.3438 4.92188 15.9703 4.6875 14.6573 4.6875C11.9166 4.6875 10.125 6.34875 10.125 9.35625V12H7.07812V15.4688H10.125V23.8542C4.38844 22.9542 0 17.9897 0 12C0 5.37281 5.37281 0 12 0C18.6272 0 24 5.37281 24 12Z" fill="#1877F2"/>
<path d="M16.6711 15.4688L17.2031 12H13.875V9.74902C13.875 8.80003 14.3399 7.875 15.8306 7.875H17.3438V4.92188C17.3438 4.92188 15.9705 4.6875 14.6576 4.6875C11.9165 4.6875 10.125 6.34875 10.125 9.35625V12H7.07812V15.4688H10.125V23.8542C10.736 23.95 11.3621 24 12 24C12.6379 24 13.264 23.95 13.875 23.8542V15.4688H16.6711Z" fill="white"/>
</g>
<defs>
<clipPath id="clip0_748_5639">
<rect width="24" height="24" fill="white"/>
</clipPath>
</defs>
</svg>
