<svg width="100" height="100" viewBox="0 0 100 100" fill="none" xmlns="http://www.w3.org/2000/svg">
<rect width="100" height="100" fill="#E9E9E9"/>
<mask id="mask0_2440_10304" style="mask-type:alpha" maskUnits="userSpaceOnUse" x="0" y="0" width="100" height="100">
<rect width="100" height="100" fill="#E9E9E9"/>
</mask>
<g mask="url(#mask0_2440_10304)">
<path fill-rule="evenodd" clip-rule="evenodd" d="M48 54H16V22C33.6731 22 48 36.3269 48 54C48 54 48 54 48 54Z" fill="#5AAE37"/>
<circle cx="20" cy="50" r="32" stroke="#333333" stroke-width="3"/>
</g>
</svg>
