<svg width="317" height="358" viewBox="0 0 317 358" fill="none" xmlns="http://www.w3.org/2000/svg">
<path d="M113.162 307.808C112.781 303.266 131.824 294.03 145.759 286.344C151.4 292.922 157.931 295.765 163.952 296.707C142.669 304.328 113.57 312.678 113.162 307.808Z" fill="#3D82F7"/>
<path d="M160.044 276.024C161.046 269.743 161.51 262.228 163.852 259.885C166.195 257.543 200.365 248.367 200.365 248.367C199.85 254.667 194.473 282.166 184.671 288.117C181.619 289.973 173.585 293.266 163.959 296.713C157.938 295.767 151.406 292.928 145.766 286.35C153.517 282.068 159.687 278.269 160.044 276.024Z" fill="#5CAFFC"/>
<path d="M192.146 264.341C193.88 267.862 183.091 290.244 180.98 281.908C178.869 273.567 187.873 255.68 192.146 264.341Z" fill="white"/>
<path d="M47.2904 227.625C51.6695 228.882 64.4309 211.992 74.6781 199.82C69.3202 193.01 67.8033 186.052 68.0445 179.961C56.4428 199.361 42.5959 226.28 47.2904 227.625Z" fill="#3D82F7"/>
<path d="M87.5856 187.815C93.9408 188.052 101.405 189.058 104.156 187.217C106.906 185.375 122.553 153.641 122.553 153.641C116.277 152.922 88.2536 152.852 80.5114 161.309C78.0992 163.944 73.3074 171.18 68.0562 179.957C67.8104 186.048 69.3319 193.006 74.6898 199.816C80.3863 193.048 85.3126 187.732 87.5856 187.815Z" fill="#5CAFFC"/>
<path d="M105.289 158.593C102.171 156.204 78.1189 162.443 85.8889 166.131C93.659 169.824 112.957 164.466 105.289 158.593Z" fill="white"/>
<path d="M301.849 146.504C314.309 117.683 320.59 89.0338 312.147 77.9331L311.748 77.4367C302.754 66.8045 273.418 67.3148 242.635 73.9158C242.551 86.7979 245.362 105.112 259.265 123.259C269.247 136.285 285.813 143.053 301.849 146.504Z" fill="#3D82F7"/>
<path d="M259.259 123.257C245.361 105.11 242.546 86.7961 242.629 73.9141C241.256 74.2109 239.878 74.5125 238.5 74.8326C238.037 87.7702 240.245 107.328 255.075 126.69C265.563 140.384 283.33 147.161 300.104 150.441C300.698 149.128 301.273 147.815 301.839 146.502C285.807 143.056 269.242 136.288 259.259 123.257Z" fill="white"/>
<path d="M198.157 136.065C210.895 127.971 228.87 120.641 247.699 115.237C239.488 99.85 238.134 85.2098 238.51 74.8281C214.87 80.2927 190.878 89.1946 175.013 99.2747C136.298 123.874 93.9453 191.049 93.9453 191.049L120.22 223.039C130.685 207.243 165.694 156.694 198.157 136.065Z" fill="#072C91"/>
<path d="M263.976 207.583C276.872 194.061 290.185 172.434 300.117 150.442C283.343 147.157 265.576 140.385 255.088 126.691C252.156 122.864 249.726 119.032 247.703 115.242C228.879 120.646 210.899 127.976 198.16 136.071C165.698 156.699 130.684 207.244 120.219 223.039L158.192 269.274C158.192 269.274 232.316 240.783 263.976 207.583Z" fill="#3D82F7"/>
<path d="M158.527 269.251C161.637 266.697 149.661 246.974 131.778 225.199C113.894 203.424 96.875 187.843 93.7647 190.398C90.6543 192.953 102.63 212.675 120.514 234.45C138.397 256.225 155.416 271.806 158.527 269.251Z" fill="black"/>
<path d="M109.385 197.383C104.565 198.723 64.7036 215.739 52.6149 237.722C43.546 254.208 46.2226 283.155 48.1245 296.593L49.7944 297.285C63.1914 301.845 89.6327 309.267 106.884 303.793C130.798 296.204 155.235 260.411 157.49 255.943L109.385 197.383Z" fill="#5CAFFC" fill-opacity="0.3"/>
<path d="M120.188 205.344C116.959 206.239 90.2857 217.627 82.1956 232.342C76.128 243.377 77.9186 262.745 79.1943 271.739L80.3122 272.203C89.2791 275.256 106.972 280.224 118.518 276.559C134.522 271.479 150.878 247.529 152.381 244.537L120.188 205.344Z" fill="#F6F7F9"/>
<path d="M134.191 210.82C132.632 211.252 119.759 216.749 115.853 223.851C112.922 229.176 113.789 238.528 114.401 242.87L114.94 243.093C119.268 244.568 127.808 246.961 133.379 245.194C141.103 242.74 148.998 231.18 149.726 229.737L134.191 210.82Z" fill="#F6F7F9"/>
<path d="M230.406 183.633C245.616 168.423 245.616 143.764 230.406 128.555C215.197 113.345 190.537 113.345 175.328 128.555C160.119 143.764 160.119 168.423 175.328 183.633C190.537 198.842 215.197 198.842 230.406 183.633Z" fill="#072C91"/>
<path d="M227.25 180.484C240.72 167.014 240.72 145.174 227.25 131.703C213.779 118.233 191.939 118.233 178.469 131.703C164.998 145.174 164.998 167.014 178.469 180.484C191.939 193.955 213.779 193.955 227.25 180.484Z" fill="#5CAFFC"/>
<path d="M218.18 151.024C220.89 154.326 222.413 158.207 222.808 162.16C224.767 155.717 223.576 148.45 218.983 142.855C211.677 133.961 198.547 132.674 189.654 139.977C184.058 144.569 181.48 151.472 182.151 158.171C183.306 154.37 185.553 150.857 188.854 148.147C197.743 140.844 210.877 142.131 218.18 151.024Z" fill="#EE9967"/>
<path d="M216.107 172.186C219.408 169.477 221.654 165.963 222.81 162.162C222.414 158.209 220.895 154.324 218.181 151.027C210.875 142.133 197.745 140.846 188.851 148.149C185.55 150.859 183.304 154.372 182.148 158.173C182.544 162.126 184.063 166.011 186.777 169.309C194.083 178.202 207.213 179.489 216.107 172.186Z" fill="white"/>
<path d="M254.915 79.7511L253.041 77.4688L250.133 77.9512L249.094 80.7113L250.968 82.9936L253.876 82.5112L254.915 79.7511Z" fill="#5CAFFC"/>
<path d="M257.044 94.4417L255.174 92.1641L252.261 92.6419L251.227 95.4066L253.096 97.6843L256.009 97.2018L257.044 94.4417Z" fill="#5CAFFC"/>
<path d="M264.708 108.301L262.838 106.023L259.925 106.506L258.891 109.266L260.76 111.544L263.669 111.061L264.708 108.301Z" fill="#5CAFFC"/>
<path d="M276.083 121.153L274.213 118.875L271.305 119.357L270.266 122.118L272.135 124.395L275.048 123.913L276.083 121.153Z" fill="#5CAFFC"/>
<path d="M289.614 131.426L287.745 129.148L284.831 129.631L283.797 132.391L285.666 134.669L288.575 134.186L289.614 131.426Z" fill="#5CAFFC"/>
<path d="M301.962 136.767L300.093 134.484L297.18 134.967L296.141 137.727L298.015 140.009L300.923 139.527L301.962 136.767Z" fill="#5CAFFC"/>
<path d="M104.394 250.795C101.671 248.828 101.587 245.632 102.395 242.594C88.274 255.063 79.1772 266.307 81.3946 269.007C83.6537 271.758 96.9115 264.702 112.257 252.869C109.492 252.911 106.644 252.419 104.394 250.795Z" fill="#3D82F7"/>
<path d="M104.392 250.797C106.642 252.425 109.495 252.917 112.255 252.87C114.101 251.446 115.98 249.957 117.873 248.398C135.486 233.93 147.714 219.703 145.177 216.618C142.644 213.533 126.311 222.76 108.697 237.228C106.508 239.028 104.397 240.823 102.393 242.595C101.581 245.634 101.669 248.825 104.392 250.797Z" fill="#5CAFFC"/>
<path d="M133.174 225.929C125.844 222.329 106.737 242.536 112.239 244.382C118.033 246.335 136.69 227.654 133.174 225.929Z" fill="white"/>
<path d="M33.2073 284.311C43.7993 281.093 49.777 269.898 46.5589 259.306C43.3408 248.714 32.1455 242.736 21.5535 245.954C10.9616 249.172 4.98379 260.368 8.2019 270.96C11.42 281.552 22.6154 287.529 33.2073 284.311Z" fill="#5CAFFC"/>
<path d="M93.2167 293.64C95.55 291.724 98.992 292.063 100.908 294.396C102.824 296.73 102.485 300.172 100.152 302.087C97.8184 304.003 94.3763 303.665 92.4605 301.331C90.5446 298.998 90.8833 295.556 93.2167 293.64Z" fill="#5CAFFC"/>
<path d="M73.5628 355.507C81.0348 354.443 86.2294 347.523 85.1652 340.051C84.101 332.578 77.181 327.384 69.709 328.448C62.237 329.512 57.0424 336.432 58.1066 343.904C59.1708 351.376 66.0908 356.571 73.5628 355.507Z" fill="#5CAFFC"/>
<path d="M18.1868 329.208C21.1338 325.771 20.7371 320.597 17.3007 317.65C13.8642 314.703 8.68941 315.099 5.74235 318.536C2.79529 321.972 3.19204 327.147 6.62846 330.094C10.0649 333.041 15.2397 332.644 18.1868 329.208Z" fill="#5CAFFC"/>
<path d="M2.88661 218.109C5.21994 216.193 8.66198 216.532 10.5778 218.865C12.4937 221.198 12.155 224.64 9.82163 226.556C7.4883 228.472 4.04625 228.133 2.13042 225.8C0.219221 223.467 0.553275 220.025 2.88661 218.109Z" fill="#5CAFFC"/>
<path d="M138.748 337.591C139.912 336.631 141.638 336.802 142.593 337.967C143.554 339.131 143.382 340.857 142.218 341.812C141.053 342.772 139.328 342.601 138.372 341.436C137.412 340.272 137.583 338.551 138.748 337.591Z" fill="#5CAFFC"/>
<path d="M196.703 36.4008C197.315 35.538 198.16 32.7222 199.38 32.2769C200.6 31.8316 202.395 31.2656 202.395 31.2656C202.395 31.2656 201.231 33.1212 200.878 33.2139C200.526 33.3067 203.183 33.3531 204.274 33.6129C205.364 33.8726 206.384 34.6473 206.384 34.6473C206.384 34.6473 205.577 35.7653 204.135 36.2384C202.692 36.7116 197.974 38.3259 197.974 38.3259L196.703 36.4008Z" fill="#EE9967"/>
<path d="M154.334 83.8049C157.251 84.4775 176.289 69.6379 177.625 67.9679C178.961 66.2979 199.363 38.4881 199.363 38.4881L196.259 35.125C196.259 35.125 174.986 51.8387 172.031 53.7313C169.076 55.624 158.717 63.6445 156.755 67.9215C154.793 72.1939 150.757 82.9791 154.334 83.8049Z" fill="#072C91"/>
<path d="M186.953 165.329L188.776 173.785L192.608 170.96L192.803 161.961L186.953 165.329Z" fill="#E7EEF6"/>
<path d="M195.769 170.004C195.769 170.004 209.374 166.85 209.462 171.595C209.55 176.341 188.439 179.643 188.175 175.237C187.91 170.825 189.715 172.189 190.323 171.437C190.93 170.681 195.769 170.004 195.769 170.004Z" fill="#EE9967"/>
<path d="M159.25 37.8694C159.672 36.8674 160.461 36.4731 161.333 35.5685C161.63 35.2623 162.97 40.5645 163.24 40.263C163.374 40.1145 162.757 35.9396 162.882 35.7912C163.56 34.9562 164 34.1212 163.796 33.2444C163.263 30.9575 159.923 27.4366 156.731 29.6957C153.54 31.9502 153.359 31.6951 150.464 31.7693C147.57 31.8435 143.789 35.9674 146.016 39.4651C148.242 42.9628 146.902 42.3922 147.147 45.1477C147.393 47.9031 154.027 51.6977 154.175 49.754C154.324 47.8104 160.948 47.597 159.125 46.7805C156.759 45.7229 152.714 40.9217 153.257 41.098C153.79 41.265 158.216 40.3233 159.25 37.8694Z" fill="#1A202C"/>
<path d="M127.898 136.789C142.315 147.741 173.771 122.617 176.248 126.704C178.725 130.791 182.659 169.265 185.048 170.077C187.442 170.893 195.351 163.824 194.873 162.117C194.395 160.414 192.131 123.146 190.99 120.474C183.234 102.341 181.726 110.769 153.003 105.625C153.003 105.625 131.238 109.044 124.799 119.356C121.872 124.055 115.424 127.312 127.898 136.789Z" fill="#3D82F7"/>
<path d="M122.059 64.2787C124.504 58.9998 124.958 56.6803 128.632 53.6326C134.426 48.8222 133.883 51.2854 135.312 51.9348C135.994 52.2456 137.047 53.127 138.184 53.8831L141.352 55.1542C138.327 55.2377 133.308 63.518 133.999 66.5796C134.264 67.7439 131.499 65.1555 132.218 68.95C130.905 74.0759 129.5 79.7492 128.437 84.5458C127.482 86.1972 126.809 87.2595 126.656 87.2827C125.965 87.3801 122.407 87.1667 122.894 88.6511C123.381 90.1356 122.829 91.7638 125.844 91.6293C126.225 91.6107 126.656 91.4344 127.115 91.1329C127.041 91.569 126.976 91.9865 126.92 92.3668C126.744 93.6054 126.614 95.5908 126.517 97.6922C123.571 97.3304 117.36 101.167 116.664 93.4338C117.569 93.276 117.434 92.5849 117.434 92.5849C117.434 92.5849 117.072 85.3668 117.671 83.5902C118.274 81.8135 119.09 75.4908 119.09 75.4908C119.007 75.4908 118.909 75.4908 118.802 75.4954C119.229 73.1946 119.679 71.005 120.115 69.0103C120.579 68.63 120.672 67.2708 122.059 64.2787Z" fill="#3D5278"/>
<path d="M147.473 55.1414C148.271 55.8743 151.467 59.0287 152.655 60.1559C153.842 61.2832 154.956 62.9856 156.264 61.979C155.429 63.0227 157.307 63.1758 157.887 62.8882C158.402 62.6331 160.327 59.8962 161.032 58.203C160.986 62.3223 161.097 73.5714 161.051 75.3249C160.991 77.4495 160.578 81.6012 160.578 81.6012C160.578 81.6012 160.777 81.3832 161.037 81.0631C160.967 81.3786 160.898 81.7033 160.824 82.0373C160.304 81.5595 158.207 95.6383 158.091 96.079C156.626 101.609 147.037 100.467 143.252 101.117C145.451 100.537 126.005 94.6874 126.005 94.6874C125.666 94.0055 129.563 61.8584 138.576 56.2222C139.351 54.3667 143.275 62.9207 143.521 61.8074C144.064 59.3766 144.017 56.4913 143.465 54.2414C143.706 53.8564 144.778 52.6689 147.473 55.1414Z" fill="#EE9967"/>
<path d="M158.598 56.1094C158.598 56.1094 158.881 58.1365 158.297 59.6302C158.455 58.6236 158.464 57.3108 158.598 56.1094Z" fill="#2867B1"/>
<path d="M155.953 60.3203L156.787 61.2242C156.885 61.252 156.973 61.2705 157.056 61.2798C156.852 61.4096 156.741 61.3911 156.268 61.9797C156.431 61.8546 156.301 61.2103 155.953 60.3203Z" fill="#2867B1"/>
<path d="M146.488 84.1395C145.871 84.1487 145.463 84.0838 145.375 83.8984C145.37 83.9031 145.769 84.0699 146.488 84.1395Z" fill="#2867B1"/>
<path d="M128.438 84.541C129.5 79.7445 130.905 74.0712 132.218 68.9453C132.603 70.9586 133.03 73.1759 133.489 75.4304C131.648 78.8167 129.764 82.2495 128.438 84.541Z" fill="#EE9967"/>
<path d="M151.719 34.9194C151.76 34.8406 151.807 34.7664 151.853 34.6875C151.853 34.6921 151.849 34.6921 151.849 34.6968C151.802 34.7664 151.76 34.8406 151.719 34.9194Z" fill="#F9C4C8"/>
<path d="M151.094 36.3886C151.173 36.1383 151.261 35.8926 151.363 35.6562C151.358 35.698 151.353 35.7397 151.349 35.7814C151.265 35.9714 151.177 36.1754 151.094 36.3886Z" fill="#F9C4C8"/>
<path d="M134.751 81.3581C133.109 84.16 129.63 89.4807 127.111 91.1275C126.647 91.429 126.22 91.6099 125.84 91.6238C122.824 91.7584 123.376 90.1301 122.889 88.6457C122.402 87.1613 125.96 87.3747 126.652 87.2772C126.809 87.2541 127.477 86.1918 128.433 84.5403C129.759 82.2488 131.643 78.8207 133.484 75.4297C133.893 77.4244 134.315 79.4376 134.751 81.3581Z" fill="#3D5278"/>
<path d="M161.293 80.7485C161.204 80.8598 161.121 80.9711 161.037 81.0686C160.778 81.384 160.578 81.6067 160.578 81.6067C160.578 81.6067 160.991 77.4549 161.051 75.3303C161.102 73.5769 160.991 62.3277 161.033 58.2084C161.121 57.9997 161.19 57.8002 161.237 57.6332C161.32 57.3178 161.293 56.9606 161.2 56.5895C161.585 56.4735 162.777 57.2528 163.89 58.6398C163.89 58.6398 163.923 59.0805 163.955 59.8552C164.08 62.94 164.192 71.4152 162.22 79.1945C162.114 79.6166 161.682 80.2429 161.293 80.7485Z" fill="#3D5278"/>
<path d="M125.826 50.208C129.63 45.4764 138.903 46.7289 143.343 48.6261C139.72 52.7593 143.403 54.3365 143.403 54.3365C143.403 54.3365 143.421 54.2948 143.463 54.2345C144.011 56.4843 144.595 60.7196 141.292 71.0966C140.944 72.1821 134.343 83.1065 132.024 85.5187C131.759 84.1039 132.298 79.312 133.364 75.587C135.716 67.3856 140.058 58.1636 139.975 57.8203C139.734 56.8276 139.594 55.9184 139.098 55.4035C139.014 54.9953 138.936 54.6288 138.866 54.3087C138.639 54.1742 138.411 54.0304 138.184 53.8819C137.048 53.1258 135.995 52.2444 135.313 51.9336C133.884 51.2842 134.427 48.8256 128.633 53.6314C124.964 56.6791 124.509 58.9986 122.06 64.2775C120.673 67.2696 120.58 68.6288 120.121 68.9999C119.773 69.2828 119.207 68.9952 117.69 68.4107C114.188 67.0562 121.554 55.5287 125.826 50.208Z" fill="#3D5278"/>
<path d="M117.672 83.576C117.069 85.3526 117.435 92.5706 117.435 92.5706C117.435 92.5706 117.57 93.2618 116.665 93.4195C116.359 93.4706 115.941 93.4659 115.357 93.35C113.038 92.8954 114.304 85.733 114.722 80.5978C115.107 75.8848 117.63 75.509 118.808 75.4812C118.915 75.4766 119.012 75.4766 119.096 75.4766C119.091 75.4766 118.275 81.7993 117.672 83.576Z" fill="#1A202C"/>
<path d="M152.177 54.4392C153.921 56.2019 155.304 58.6883 155.944 60.3212C156.292 61.2118 156.421 61.8566 156.264 61.9773C154.956 62.9839 153.842 61.2814 152.655 60.1542C151.467 59.027 148.271 55.8726 147.473 55.1396C144.778 52.6718 143.711 53.8547 143.465 54.235C143.424 54.2954 143.405 54.3371 143.405 54.3371C143.405 54.3371 139.722 52.7599 143.345 48.6267C143.442 48.5154 143.526 48.4087 143.637 48.2881C147.779 43.8951 151.013 47.8891 151.013 47.8891L150.28 50.4173C150.28 50.4173 150.159 50.6214 150.173 51.0343C150.192 51.6651 150.54 52.7877 152.177 54.4392Z" fill="#072C91"/>
<path d="M154.66 63.5678C153.667 63.2339 152.841 62.3664 152.289 61.7865C152.09 61.5778 151.89 61.369 151.691 61.1789C151.153 60.6686 150.202 59.7408 149.246 58.8084C148.119 57.709 146.95 56.5679 146.528 56.1828C145.187 54.9535 144.617 55.0278 144.612 55.0324L144.065 56.3406L142.849 55.6355C142.65 55.5473 140.882 54.7402 140.442 52.7872C140.084 51.2193 140.706 49.5122 142.288 47.7077L142.376 47.6056C142.45 47.5175 142.529 47.4247 142.617 47.332C144.245 45.6063 145.99 44.7667 147.799 44.8316C150.35 44.9244 151.937 46.7938 152.108 47.0072L152.572 47.5778L151.584 50.9827L151.579 50.9873C151.584 51.1358 151.691 51.9476 153.18 53.4506C155.119 55.4081 156.589 58.0987 157.257 59.8104C157.591 60.6639 158.213 62.2551 157.127 63.09C156.237 63.772 155.402 63.8183 154.66 63.5678ZM145.809 52.4115C146.625 52.6852 147.488 53.2511 148.425 54.1046C148.88 54.5221 150.012 55.6215 151.208 56.7905C152.155 57.709 153.092 58.6275 153.625 59.1331C153.774 59.2769 153.927 59.4254 154.075 59.5831C153.375 58.1961 152.345 56.6003 151.18 55.4313C149.626 53.8634 148.815 52.4022 148.768 51.0848C148.75 50.5606 148.856 50.1756 148.958 49.9297L149.427 48.32C149.028 48.0139 148.406 47.6567 147.669 47.6335C146.709 47.6056 145.697 48.153 144.658 49.2524C144.607 49.3035 144.57 49.3545 144.528 49.4009L144.403 49.5493C143.485 50.5977 143.049 51.5208 143.178 52.1424C143.206 52.2816 143.267 52.4068 143.346 52.5182C143.629 52.3744 143.939 52.2769 144.264 52.2352C144.756 52.1749 145.271 52.2306 145.809 52.4115Z" fill="#072C91"/>
<path d="M161.026 58.2025C160.321 59.8957 158.396 62.6326 157.881 62.8878C157.301 63.1754 155.422 63.0223 156.257 61.9786C156.731 61.3894 156.842 61.408 157.046 61.2781C157.204 61.176 157.417 60.9858 157.89 60.3596C158.053 60.1416 158.183 59.8957 158.285 59.6313C158.869 58.1376 158.586 56.1104 158.586 56.1104L158.976 54.2132L159.472 53.5312C159.472 53.5312 160.836 55.1409 161.189 56.5836C161.277 56.9501 161.304 57.3073 161.226 57.6273C161.184 57.7943 161.114 57.9892 161.026 58.2025Z" fill="#224187"/>
<path d="M156.056 64.2451C155.657 64.1105 155.3 63.8925 155.04 63.5724C154.59 63.0111 154.386 62.0695 155.161 61.0999C155.629 60.5154 155.907 60.3021 156.26 60.1072C156.283 60.0933 156.409 59.9866 156.77 59.5088C156.84 59.416 156.91 59.2815 156.974 59.1192C157.346 58.1775 157.253 56.7348 157.192 56.3034L157.16 56.0622L157.661 53.6314L159.391 51.2656L160.542 52.6248C160.704 52.815 162.133 54.536 162.55 56.2524C162.703 56.8832 162.717 57.4631 162.578 57.9826C162.523 58.2007 162.434 58.4512 162.314 58.7434C161.701 60.2186 159.619 63.5956 158.491 64.1477C157.911 64.4399 156.896 64.528 156.056 64.2451Z" fill="#072C91"/>
<path d="M159.441 59.0777C157.395 59.5602 155.952 60.6178 153.777 57.1016C152.668 55.3156 151.221 52.588 150.901 52.1102L152.283 47.9956L152.264 48.028L152.134 47.5039L151.587 45.3329L151.318 45.1381L150.321 44.4144C149.736 44.3634 149.105 43.6026 148.832 42.5589C148.521 41.376 148.794 40.2812 149.435 40.1142C150.079 39.9472 150.849 40.7683 151.16 41.9512C151.262 42.3316 151.299 42.7027 151.285 43.0413C151.476 43.5377 151.842 44.2799 152.38 44.3402C152.519 44.3587 152.659 44.3866 152.793 44.419C152.877 43.9088 152.858 43.3475 152.71 42.7769C152.603 42.3687 152.431 41.1394 152.417 41.0605C152.431 39.8823 152.784 38.5231 154.083 37.2799C155.266 37.2799 156.481 37.1454 157.488 36.8809C159.167 36.4403 160.229 35.9207 160.763 35.2434L161.041 35.1043L161.282 34.4688C161.955 35.3084 162.479 36.2872 162.767 37.3958C162.771 37.4144 162.771 37.433 162.776 37.4515C162.785 37.484 162.794 37.5072 162.804 37.5397C162.901 37.9061 162.989 38.3422 163.068 38.8292C163.578 41.9651 164.571 46.7802 163.036 48.6775C162.799 48.9697 161.551 49.3779 161.616 49.7027C161.904 51.1871 159.441 59.0777 159.441 59.0777Z" fill="#FDF2F2"/>
<path d="M137.492 97.2247C139.389 98.7416 149.163 95.5083 156.993 92.5487C158.046 92.9523 158.557 79.9729 161.001 80.5666C159.832 85.943 163.989 88.7263 158.39 106.822C156.734 107.203 143.453 117.626 141.532 117.269C139.653 116.921 125.152 114.421 123.065 115.947C123.097 113.929 118.287 112.449 126.359 93.3049C127.36 90.9205 136.156 96.1577 137.492 97.2247Z" fill="#EE9967"/>
<path d="M124.165 117.835L122.407 121.301C122.026 122.089 124.953 125.851 137.302 128.843C150.648 132.081 154.758 113.563 155.389 113.317C156.02 113.071 156.386 110.641 156.386 110.641L124.165 117.835Z" fill="#FFFAF9"/>
<path d="M140.231 111.701C142.151 112.058 156.791 105.68 158.22 106.598C158.86 107.011 158.8 111.367 155.65 111.761C154.314 111.928 143.728 114.03 141.265 116.201C136.905 120.032 128.082 120.603 126.11 120.121C123.211 119.411 122.158 117.648 122.872 116.164C122.914 116.08 122.984 116.011 123.067 115.95C125.145 114.424 138.352 111.349 140.231 111.701Z" fill="#224187"/>
<path d="M147.753 76.6695C147.73 76.6602 147.711 76.6509 147.688 76.637C147.586 76.5581 147.563 76.4143 147.637 76.3076C151.483 71.089 152.958 67.081 153.515 64.6364C154.118 61.9922 153.812 60.5635 153.807 60.5495C153.779 60.4243 153.858 60.299 153.983 60.2712C154.108 60.2434 154.234 60.3222 154.262 60.4475C154.317 60.6841 155.514 66.4084 148.013 76.586C147.953 76.6695 147.846 76.7019 147.753 76.6695Z" fill="#FFFAF9"/>
<path d="M155.368 81.4152C155.303 81.392 155.252 81.3456 155.224 81.2806C153.619 77.1753 154.653 72.1561 155.804 68.6677C157.042 64.9009 158.684 62.0573 158.698 62.0295C158.763 61.9182 158.907 61.8811 159.018 61.946C159.13 62.011 159.167 62.1548 159.102 62.2661C159.037 62.3774 152.682 73.4921 155.66 81.1137C155.706 81.2343 155.646 81.3688 155.525 81.4152C155.474 81.4291 155.419 81.4291 155.368 81.4152Z" fill="#FFFAF9"/>
<path d="M161.487 43.8696C161.492 43.8696 161.501 43.865 161.506 43.865C161.534 43.8557 162.201 43.6145 162.749 43.1599C163.236 42.7517 162.54 41.7033 161.501 40.2652C161.26 39.9359 161.056 39.6483 160.958 39.4766C160.907 39.3885 160.791 39.356 160.703 39.4071C160.615 39.4581 160.583 39.5741 160.634 39.6622C160.74 39.8524 160.954 40.1446 161.2 40.4833C161.538 40.9518 161.96 41.5363 162.239 42.0234C162.647 42.747 162.517 42.8676 162.512 42.8676C162.016 43.2805 161.39 43.5078 161.385 43.5078C161.288 43.5403 161.237 43.6516 161.269 43.749C161.302 43.8418 161.399 43.8928 161.487 43.8696Z" fill="#EDA1AA"/>
<path d="M158.282 38.2608C158.519 38.4696 154.539 40.1674 154.432 39.7174C154.325 39.2674 157.786 37.8248 158.282 38.2608Z" fill="#1A202C"/>
<path d="M161.102 37.121C160.912 37.6776 163.927 38.0395 163.876 37.8168C163.821 37.5941 161.334 36.4344 161.102 37.121Z" fill="#1A202C"/>
<path d="M157.533 40.0975C157.714 40.3896 157.353 41.0107 157.056 40.7604C156.764 40.5147 157.278 39.685 157.533 40.0975Z" fill="#1A202C"/>
<path d="M162.824 39.0915C163.005 39.3835 162.643 40.0046 162.347 39.7543C162.05 39.5087 162.569 38.6743 162.824 39.0915Z" fill="#1A202C"/>
<path d="M127.368 8.52247C127.405 7.46482 128.444 4.71399 127.744 3.61923C127.043 2.52447 125.963 0.984375 125.963 0.984375C125.963 0.984375 125.758 3.16462 125.981 3.45223C126.204 3.73984 124.065 2.16264 123.04 1.70803C122.015 1.25343 120.735 1.24879 120.735 1.24879C120.735 1.24879 120.698 2.62652 121.556 3.879C122.414 5.13149 125.183 9.2786 125.183 9.2786L127.368 8.52247Z" fill="#EE9967"/>
<path d="M132.254 71.9099C129.527 70.6713 123.413 47.3194 123.362 45.1809C123.315 43.0424 123.988 8.56204 123.988 8.56204L128.497 7.77344C128.497 7.77344 135.251 33.9735 136.452 37.2717C137.649 40.5699 141.012 53.2293 139.973 57.8217C138.944 62.4095 135.599 73.4268 132.254 71.9099Z" fill="#072C91"/>
<path d="M162.247 44.647C162.247 44.647 160.275 45.1109 159.566 44.7537C158.856 44.4012 158.016 44.8048 158.717 45.5748C159.417 46.3495 158.707 47.7643 160.888 46.8366C163.063 45.9134 162.59 44.7723 162.247 44.647Z" fill="#EDA1AA"/>
<path fill-rule="evenodd" clip-rule="evenodd" d="M216.245 217.016C215.954 218.411 215.267 219.773 214.212 220.923L209.458 214.494C209.99 213.887 210.469 213.206 210.858 212.52C210.542 211.786 210.254 211.088 210.035 210.311C209.64 211.585 208.903 212.628 208.073 213.583C207.709 213.995 207.718 214.642 208.072 215.121L213.336 222.24C213.805 222.874 214.674 222.972 215.162 222.44C216.41 221.048 217.417 219.236 217.791 217.394C217.263 217.315 216.752 217.181 216.245 217.016ZM218.232 208.006L222.986 214.435C218.827 216.429 212.933 214.827 212.097 208.886C215.744 210.586 216.245 213.9 216.239 213.89C216.756 214.148 217.32 214.314 217.884 214.423C217.802 213.773 217.637 213.127 217.399 212.477C216.884 211.108 216.062 209.881 215.009 208.938C213.897 208.011 212.99 207.458 211.915 207.043C211.112 206.727 210.335 207.33 210.427 208.186C210.537 209.258 210.79 210.293 211.3 211.695C211.893 212.978 212.826 214.123 213.984 215.017C216.271 216.782 219.046 217.206 221.592 216.647C222.462 216.458 223.347 216.174 224.174 215.79C224.823 215.495 224.994 214.629 224.518 213.985L219.199 206.793C218.818 206.278 218.165 206.106 217.651 206.373C216.539 206.967 215.441 207.367 214.005 207.291C214.103 207.289 215.295 208.228 215.448 208.358L215.935 208.766C216.705 208.595 217.496 208.337 218.232 208.006Z" fill="white"/>
<path fill-rule="evenodd" clip-rule="evenodd" d="M247.403 184.78C247.694 183.384 248.38 182.023 249.436 180.872L254.19 187.301C253.657 187.909 253.179 188.589 252.79 189.275C253.105 190.01 253.393 190.707 253.612 191.484C254.007 190.21 254.744 189.167 255.574 188.212C255.939 187.801 255.929 187.153 255.576 186.675L250.312 179.556C249.842 178.921 248.974 178.824 248.485 179.356C247.238 180.748 246.23 182.56 245.856 184.401C246.384 184.48 246.896 184.614 247.403 184.78ZM245.415 193.79L240.661 187.361C244.82 185.366 250.714 186.969 251.55 192.909C247.904 191.21 247.402 187.896 247.409 187.905C246.891 187.648 246.327 187.481 245.763 187.372C245.846 188.023 246.01 188.669 246.249 189.318C246.763 190.687 247.585 191.915 248.638 192.857C249.751 193.785 250.657 194.338 251.732 194.752C252.535 195.069 253.313 194.465 253.22 193.609C253.111 192.538 252.857 191.502 252.347 190.101C251.754 188.818 250.822 187.672 249.663 186.779C247.376 185.013 244.601 184.589 242.056 185.149C241.185 185.337 240.3 185.622 239.474 186.005C238.824 186.3 238.654 187.166 239.13 187.81L244.448 195.002C244.829 195.518 245.482 195.689 245.997 195.422C247.117 194.822 248.207 194.429 249.643 194.505C249.544 194.506 248.352 193.567 248.2 193.438L247.713 193.03C246.943 193.201 246.152 193.458 245.415 193.79Z" fill="white"/>
<path d="M258.371 172.021L253.606 175.544C252.76 176.17 252.58 177.37 253.206 178.216L260.436 187.993C260.694 188.342 261.19 188.416 261.53 188.165C261.88 187.906 261.945 187.417 261.687 187.068L258.15 182.285L260.164 180.796L267.36 183.427C267.554 183.497 267.776 183.49 267.969 183.404C268.021 183.379 268.058 183.352 268.104 183.318C268.224 183.23 268.325 183.098 268.372 182.949C268.514 182.545 268.311 182.098 267.901 181.946L261.709 179.653L263.199 178.551C264.046 177.925 264.225 176.726 263.6 175.879L261.049 172.43C260.417 171.575 259.217 171.395 258.371 172.021ZM262.537 177.078L261.691 177.704L257.23 181.002L254.271 177.001L259.578 173.077L262.537 177.078Z" fill="white"/>
<path d="M202.101 213.629L196.427 217.825C195.58 218.451 195.401 219.651 196.026 220.497L202.603 229.391C203.229 230.237 204.429 230.417 205.275 229.791L210.95 225.595C211.299 225.336 211.364 224.847 211.113 224.507L211.079 224.461C210.82 224.111 210.331 224.046 209.991 224.298L204.086 228.664L197.162 219.301L203.067 214.935C203.417 214.676 203.482 214.187 203.23 213.847L203.196 213.801C202.947 213.445 202.451 213.37 202.101 213.629Z" fill="white"/>
<path d="M235.242 189.129L229.567 193.325C228.721 193.951 228.541 195.151 229.167 195.997L235.744 204.891C236.369 205.737 237.569 205.917 238.415 205.291L244.09 201.095C244.44 200.836 244.505 200.347 244.253 200.007L244.219 199.961C243.961 199.611 243.472 199.546 243.131 199.798L237.227 204.164L230.303 194.801L236.208 190.435C236.557 190.176 236.622 189.687 236.371 189.347L236.337 189.301C236.088 188.945 235.592 188.87 235.242 189.129Z" fill="white"/>
<path d="M263.055 168.561C262.706 168.819 262.641 169.309 262.899 169.658L270.802 180.346C271.06 180.695 271.556 180.769 271.897 180.518C272.246 180.259 272.311 179.77 272.053 179.421L264.15 168.733C263.891 168.384 263.395 168.309 263.055 168.561Z" fill="white"/>
<path d="M224.889 196.776L218.313 201.639C217.963 201.898 217.898 202.387 218.157 202.736C218.415 203.086 218.911 203.16 219.251 202.908L221.91 200.943L229.35 211.005C229.608 211.354 230.104 211.429 230.445 211.177C230.794 210.919 230.859 210.429 230.601 210.08L223.154 200.009L225.812 198.043C226.161 197.785 226.226 197.296 225.968 196.946C225.725 196.599 225.239 196.518 224.889 196.776Z" fill="white"/>
</svg>
