<svg width="56" height="56" viewBox="0 0 56 56" fill="none" xmlns="http://www.w3.org/2000/svg">
<path d="M49.0919 3.74872H45.5846V2.49452C45.5846 1.11902 44.4656 0 43.0901 0H42.7135C41.338 0 40.219 1.11902 40.219 2.49452V3.74872H15.7847V2.49452C15.7847 1.11902 14.6656 0 13.2901 0H12.9135C11.538 0 10.4189 1.11902 10.4189 2.49452V3.74872H6.91172C4.64711 3.74872 2.80469 5.59114 2.80469 7.85575V23.5009C2.80469 23.9539 3.17197 24.3212 3.625 24.3212C4.07803 24.3212 4.44531 23.9539 4.44531 23.5009V17.112H51.5584V38.3437C51.5584 39.3763 50.7183 40.2164 49.6857 40.2164H44.21C42.2728 40.2164 40.6967 41.7925 40.6967 43.7298V49.2054C40.6967 50.238 39.8566 51.0781 38.824 51.0781H6.91172C5.55175 51.0781 4.44531 49.9717 4.44531 48.6117L4.44575 27.0452C4.44575 26.5921 4.07847 26.2248 3.62544 26.2248C3.17241 26.2248 2.80512 26.5921 2.80512 27.0452L2.80469 47.3333V47.3339V51.8984C2.80469 54.1601 4.64459 56 6.90625 56H49.0974C51.3591 56 53.199 54.1601 53.199 51.8984V7.85575C53.199 5.59114 51.3566 3.74872 49.0919 3.74872V3.74872ZM42.3373 49.2054V43.7298C42.3373 42.6972 43.1774 41.857 44.21 41.857H49.6857C49.9706 41.857 50.2474 41.822 50.5129 41.7577L42.2381 50.0325C42.3024 49.7672 42.3373 49.4903 42.3373 49.2054V49.2054ZM51.5584 51.8984C51.5584 53.2555 50.4545 54.3594 49.0974 54.3594H6.90625C5.54923 54.3594 4.44531 53.2555 4.44531 51.8984V51.8933C5.13262 52.4112 5.98684 52.7188 6.91172 52.7188H40.1709C41.2679 52.7188 42.2993 52.2915 43.075 51.5157L51.5584 43.0324V51.8984ZM41.8597 2.49452C41.8597 2.02366 42.2427 1.64062 42.7135 1.64062H43.0901C43.561 1.64062 43.944 2.02366 43.944 2.49452V3.74872H41.8597V2.49452ZM12.0597 2.49452C12.0597 2.02366 12.4427 1.64062 12.9136 1.64062H13.2903C13.7611 1.64062 14.1441 2.02366 14.1441 2.49452V3.74872H12.0598V2.49452H12.0597ZM51.5584 15.4715H4.44531V7.85575C4.44531 6.49578 5.55175 5.38934 6.91172 5.38934H10.4189V7.80128C10.4189 9.17678 11.538 10.2958 12.9135 10.2958C13.3665 10.2958 13.7338 9.92852 13.7338 9.47548C13.7338 9.02245 13.3665 8.65517 12.9135 8.65517C12.4426 8.65517 12.0596 8.27214 12.0596 7.80128V5.38934H40.219V7.80128C40.219 9.17678 41.338 10.2958 42.7135 10.2958C43.1666 10.2958 43.5339 9.92852 43.5339 9.47548C43.5339 9.02245 43.1666 8.65517 42.7135 8.65517C42.2427 8.65517 41.8597 8.27214 41.8597 7.80128V5.38934H49.092C50.452 5.38934 51.5585 6.49578 51.5585 7.85575V15.4715H51.5584ZM28.0018 27.4676C27.5488 27.4676 27.1815 27.8348 27.1815 28.2879V34.384C27.1815 34.6592 27.3228 34.9153 27.5498 35.0685L31.1081 37.4184C31.2473 37.5104 31.4043 37.5543 31.5594 37.5543C31.8257 37.5543 32.0869 37.4248 32.2446 37.186C32.4943 36.8079 32.3902 36.299 32.0122 36.0493L28.8222 33.9428V28.288C28.8222 27.8348 28.4549 27.4676 28.0018 27.4676V27.4676ZM34.225 41.4783C34.5453 41.7986 35.0647 41.7986 35.385 41.4783C37.3601 39.5033 38.4477 36.8812 38.4477 34.0951C38.4477 28.3352 33.7616 23.6493 28.0018 23.6493C22.242 23.6493 17.556 28.3353 17.556 34.0951C17.556 39.8549 22.242 44.541 28.0018 44.541C29.4095 44.541 30.7766 44.2643 32.0649 43.7184C32.4821 43.5416 32.677 43.0602 32.5002 42.643C32.3235 42.226 31.8421 42.0307 31.4248 42.2077C30.3401 42.6673 29.1883 42.9004 28.0017 42.9004C23.1465 42.9004 19.1965 38.9503 19.1965 34.0951C19.1965 29.24 23.1466 25.2899 28.0017 25.2899C32.8569 25.2899 36.807 29.24 36.807 34.0951C36.807 36.443 35.89 38.6531 34.2248 40.3182C33.9046 40.6386 33.9046 41.158 34.225 41.4783Z" fill="white"/>
</svg>
