<svg width="56" height="56" viewBox="0 0 56 56" fill="none" xmlns="http://www.w3.org/2000/svg">
<path d="M52.5479 48.272C52.2637 48.083 52.0308 47.8266 51.8698 47.5258C51.7087 47.2249 51.6247 46.8889 51.625 46.5476V45.5C51.625 45.2679 51.5328 45.0454 51.3687 44.8813C51.2046 44.7172 50.9821 44.625 50.75 44.625V38.5C50.75 38.2911 50.6753 38.0892 50.5394 37.9306L46.2952 32.979L49.5983 34.0801C49.6876 34.1098 49.781 34.125 49.875 34.125H52.5C52.7321 34.125 52.9546 34.0328 53.1187 33.8687C53.2828 33.7046 53.375 33.4821 53.375 33.25V30.625C53.375 30.4967 53.3468 30.37 53.2924 30.2539C53.238 30.1377 53.1587 30.0349 53.0602 29.9528L48.125 25.8402V22.75C48.125 22.617 48.0947 22.4858 48.0364 22.3663C47.9781 22.2468 47.8933 22.1421 47.7885 22.0603C47.6837 21.9785 47.5616 21.9216 47.4315 21.894C47.3014 21.8665 47.1668 21.8689 47.0378 21.9012L43.5378 22.7762C43.395 22.8118 43.2635 22.883 43.1555 22.983C43.0475 23.083 42.9665 23.2086 42.9199 23.3483L42.2313 25.4143C41.47 25.5093 40.7389 25.7698 40.089 26.1775C39.4392 26.5851 38.8865 27.1301 38.4697 27.7741C38.415 27.5686 38.2872 27.3901 38.1104 27.272L35.973 25.847L37.608 17.6716C37.6334 17.5447 37.6303 17.4137 37.599 17.2881C37.5676 17.1625 37.5088 17.0454 37.4267 16.9453C37.3446 16.8452 37.2414 16.7645 37.1244 16.7091C37.0073 16.6537 36.8795 16.625 36.75 16.625H35C34.768 16.625 34.5454 16.7172 34.3813 16.8812L33.4897 17.7729L33.1576 17.1086C33.085 16.9633 32.9732 16.8411 32.835 16.7557C32.6968 16.6702 32.5375 16.625 32.375 16.625H30.625C30.4625 16.625 30.3032 16.6702 30.165 16.7557C30.0268 16.8411 29.9151 16.9633 29.8424 17.1086L29.5103 17.7729L28.6187 16.8812C28.4546 16.7172 28.2321 16.625 28 16.625H26.25C26.1206 16.625 25.9927 16.6537 25.8757 16.7091C25.7587 16.7645 25.6554 16.8452 25.5733 16.9453C25.4912 17.0454 25.4324 17.1625 25.4011 17.2881C25.3697 17.4137 25.3666 17.5447 25.392 17.6716L27.0271 25.847L24.8897 27.272C24.8514 27.298 24.8152 27.327 24.7816 27.3588C23.918 26.5893 22.7847 26.1933 21.6298 26.2575C20.4749 26.3218 19.3925 26.841 18.6196 27.7015C17.8467 28.562 17.4462 29.6937 17.5059 30.8489C17.5656 32.004 18.0805 33.0885 18.938 33.8648L17.0147 35.147C16.8948 35.2269 16.7965 35.3351 16.7286 35.4621C16.6606 35.5891 16.625 35.731 16.625 35.875V37.625C16.625 37.8571 16.7172 38.0796 16.8813 38.2437C17.0454 38.4078 17.268 38.5 17.5 38.5H18.375V39.7201C18.3752 40.5276 18.273 41.3319 18.0707 42.1136C16.5509 39.4602 15.7509 36.4558 15.75 33.3979V17.7066L18.2826 12.6414C18.3648 12.4771 18.3931 12.2911 18.3637 12.1098C18.3343 11.9286 18.2486 11.7611 18.1187 11.6312L14.6187 8.13124C14.4546 7.96717 14.2321 7.875 14 7.875H12.25V5.25H14V3.5H12.25V1.75H10.5V3.5H8.75002V5.25H10.5V7.875H8.75002C8.51797 7.875 8.29541 7.96717 8.13131 8.13124L4.63131 11.6312C4.50145 11.7611 4.41574 11.9286 4.38633 12.1098C4.35691 12.2911 4.38528 12.4771 4.46741 12.6414L7.00002 17.7066V33.3979C6.99985 36.5778 6.13563 39.698 4.49972 42.4248C4.4183 42.5608 4.37541 42.7165 4.37566 42.875H4.37502V44.5188C4.37632 44.9926 4.28363 45.4619 4.10233 45.8996C3.92104 46.3373 3.65472 46.7347 3.31881 47.0687C2.81988 47.565 2.42433 48.1552 2.15505 48.8053C1.88576 49.4554 1.7481 50.1525 1.75002 50.8562V53.375C1.75002 53.6071 1.84221 53.8296 2.0063 53.9937C2.1704 54.1578 2.39296 54.25 2.62502 54.25H53.375C53.6071 54.25 53.8296 54.1578 53.9937 53.9937C54.1578 53.8296 54.25 53.6071 54.25 53.375V51.4524C54.2507 50.823 54.0956 50.2032 53.7986 49.6483C53.5016 49.0933 53.072 48.6205 52.5479 48.272V48.272ZM39.375 30.625C39.3761 29.6971 39.7452 28.8074 40.4013 28.1513C41.0575 27.4951 41.9471 27.1261 42.875 27.125C43.0587 27.125 43.2376 27.0672 43.3866 26.9599C43.5356 26.8525 43.647 26.701 43.7051 26.5267L44.4282 24.3574L46.375 23.8707V26.25C46.375 26.3783 46.4032 26.505 46.4576 26.6211C46.512 26.7373 46.5913 26.8401 46.6898 26.9222L51.625 31.0348V32.375H50.017L44.9017 30.6699C44.7702 30.626 44.6301 30.6141 44.4931 30.635C44.356 30.6559 44.2259 30.7091 44.1134 30.7901C44.0009 30.8712 43.9093 30.9778 43.8461 31.1013C43.783 31.2247 43.75 31.3614 43.75 31.5V32.375C43.75 32.5839 43.8247 32.7858 43.9607 32.9444L49 38.8236V44.625H41.6204L39.375 40.8826V30.625ZM37.7497 41.5752L39.6976 44.8217C39.5968 44.9036 39.5154 45.007 39.4596 45.1244C39.4038 45.2417 39.3749 45.3701 39.375 45.5V46.5476C39.3752 46.8788 39.2959 47.2053 39.1436 47.4994C38.9913 47.7936 38.7706 48.0469 38.5 48.2379C38.2294 48.0469 38.0087 47.7936 37.8564 47.4994C37.7042 47.2053 37.6248 46.8788 37.625 46.5476V45.5C37.625 45.2679 37.5328 45.0454 37.3687 44.8813C37.2046 44.7172 36.9821 44.625 36.75 44.625H36.3581C35.4683 43.1438 34.9987 41.4481 35 39.7201V30.625H37.625V41.125C37.625 41.2836 37.6681 41.4392 37.7497 41.5752V41.5752ZM29.75 39.7201V30.625H33.25V39.7201C33.2484 41.4186 33.6312 43.0954 34.3697 44.625H28.6304C29.3688 43.0954 29.7516 41.4186 29.75 39.7201V39.7201ZM27.6376 18.375L29.1313 19.8688C29.2294 19.9668 29.3493 20.0401 29.4812 20.0827C29.6132 20.1253 29.7533 20.1359 29.8902 20.1137C30.027 20.0915 30.1566 20.0371 30.2683 19.9549C30.38 19.8728 30.4706 19.7653 30.5326 19.6414L31.1658 18.375H31.8342L32.4674 19.6414C32.5294 19.7653 32.62 19.8728 32.7317 19.9549C32.8434 20.0371 32.973 20.0915 33.1099 20.1137C33.2467 20.1359 33.3869 20.1253 33.5188 20.0827C33.6508 20.0401 33.7707 19.9668 33.8687 19.8688L35.3624 18.375H35.6827L34.2827 25.375H28.7174L27.3173 18.375H27.6376ZM26.25 28.4683L28.265 27.125H34.7351L36.75 28.4683V28.875H26.25V28.4683ZM28 30.625V39.7201C28.0012 41.4176 27.548 43.0845 26.6875 44.5477C25.827 43.0845 25.3738 41.4176 25.375 39.7201V38.5H26.25C26.4821 38.5 26.7046 38.4078 26.8687 38.2437C27.0328 38.0796 27.125 37.8571 27.125 37.625V35.875C27.125 35.731 27.0895 35.5891 27.0215 35.4621C26.9535 35.3351 26.8552 35.2269 26.7354 35.147L24.812 33.8648C25.265 33.4554 25.627 32.9555 25.8747 32.3974C26.1224 31.8394 26.2503 31.2356 26.25 30.625H28ZM21.875 28C22.3942 28 22.9017 28.154 23.3334 28.4424C23.7651 28.7308 24.1015 29.1408 24.3002 29.6205C24.4989 30.1001 24.5509 30.6279 24.4496 31.1371C24.3483 31.6463 24.0983 32.114 23.7312 32.4812C23.3641 32.8483 22.8963 33.0983 22.3871 33.1996C21.8779 33.3008 21.3501 33.2489 20.8705 33.0502C20.3908 32.8515 19.9809 32.5151 19.6924 32.0834C19.404 31.6517 19.25 31.1442 19.25 30.625C19.2508 29.9291 19.5276 29.2618 20.0197 28.7697C20.5119 28.2776 21.1791 28.0008 21.875 28V28ZM18.375 36.3433L20.39 35H23.3601L25.375 36.3433V36.75H18.375V36.3433ZM23.625 38.5V39.7201C23.6238 41.4187 24.0072 43.0956 24.7462 44.625H19.0038C19.7429 43.0956 20.1262 41.4187 20.125 39.7201V38.5H23.625ZM6.31466 12.4228L9.11249 9.625H13.6376L16.4354 12.4228L14.3342 16.625H8.41581L6.31466 12.4228ZM8.75002 33.3979V18.375H14V33.3979C14.0002 36.3832 14.6929 39.3277 16.0236 42H6.72642C8.05719 39.3277 8.74988 36.3832 8.75002 33.3979V33.3979ZM13.125 51.4524V52.5H3.50002V50.8562C3.49872 50.3824 3.59141 49.9131 3.77271 49.4754C3.954 49.0377 4.22032 48.6403 4.55623 48.3063C5.05516 47.81 5.45071 47.2198 5.71999 46.5697C5.98928 45.9196 6.12694 45.2225 6.12502 44.5188V43.75H16.625V44.5188C16.625 44.5542 16.6273 44.5896 16.628 44.625H16.625C16.393 44.625 16.1704 44.7172 16.0063 44.8813C15.8422 45.0454 15.75 45.2679 15.75 45.5V46.5476C15.7504 46.8889 15.6663 47.2249 15.5053 47.5258C15.3443 47.8266 15.1113 48.083 14.8272 48.272C14.3031 48.6205 13.8734 49.0933 13.5764 49.6483C13.2794 50.2032 13.1243 50.823 13.125 51.4524V51.4524ZM28.875 52.5H14.875V51.4524C14.8747 51.1111 14.9587 50.7751 15.1198 50.4742C15.2808 50.1734 15.5137 49.917 15.7979 49.728C16.322 49.3795 16.7516 48.9067 17.0486 48.3517C17.3456 47.7968 17.5007 47.177 17.5 46.5476V46.375H26.25V46.5476C26.2493 47.177 26.4044 47.7968 26.7014 48.3517C26.9984 48.9067 27.4281 49.3795 27.9522 49.728C28.2363 49.917 28.4693 50.1734 28.6303 50.4742C28.7913 50.7751 28.8754 51.1111 28.875 51.4524V52.5ZM38.5 52.5H30.625V51.4524C30.6257 50.823 30.4706 50.2032 30.1736 49.6483C29.8766 49.0933 29.447 48.6205 28.9229 48.272C28.6387 48.083 28.4058 47.8266 28.2448 47.5258C28.0837 47.2249 27.9997 46.8889 28 46.5476V46.375H35.875V46.5476C35.8743 47.177 36.0294 47.7968 36.3264 48.3517C36.6234 48.9067 37.0531 49.3795 37.5772 49.728C37.8613 49.917 38.0943 50.1734 38.2553 50.4742C38.4163 50.7751 38.5004 51.1111 38.5 51.4524V52.5ZM52.5 52.5H40.25V51.4524C40.2501 50.7683 40.0664 50.0967 39.718 49.508C40.1579 49.1503 40.5125 48.6989 40.7559 48.1867C40.9993 47.6746 41.1254 47.1146 41.125 46.5476V46.375H49.875V46.5476C49.8743 47.177 50.0294 47.7968 50.3264 48.3517C50.6234 48.9067 51.0531 49.3795 51.5772 49.728C51.8613 49.917 52.0943 50.1734 52.2553 50.4742C52.4163 50.7751 52.5004 51.1111 52.5 51.4524V52.5Z" fill="white"/>
</svg>
