<svg width="56" height="56" viewBox="0 0 56 56" fill="none" xmlns="http://www.w3.org/2000/svg">
<path d="M35.1966 54.4864H15.9296C14.904 54.4864 13.9204 54.079 13.1951 53.3537C12.4699 52.6285 12.0625 51.6449 12.0625 50.6193V42.0226C12.06 41.1844 12.2662 40.3588 12.6625 39.6203C13.0589 38.8817 13.6329 38.2535 14.3328 37.7923L16.6712 36.2788C17.1696 35.9576 17.5791 35.5161 17.8621 34.9951C18.1451 34.474 18.2925 33.8901 18.2906 33.2972V32.3437C18.2906 32.143 18.3704 31.9505 18.5123 31.8086C18.6542 31.6666 18.8467 31.5869 19.0474 31.5869C19.2481 31.5869 19.4406 31.6666 19.5825 31.8086C19.7244 31.9505 19.8041 32.143 19.8041 32.3437V33.2972C19.8073 34.1365 19.6014 34.9634 19.205 35.7033C18.8087 36.4431 18.2344 37.0726 17.5339 37.535L15.2031 39.0485C14.7096 39.3701 14.3044 39.81 14.0242 40.3281C13.744 40.8461 13.5978 41.426 13.5987 42.015V50.6193C13.6007 51.239 13.8462 51.8331 14.2822 52.2734C14.7183 52.7137 15.3099 52.9649 15.9296 52.9729H35.1966C35.8202 52.9709 36.4176 52.7223 36.8586 52.2813C37.2995 51.8404 37.5481 51.2429 37.5501 50.6193V42.0226C37.5511 41.4336 37.4048 40.8537 37.1246 40.3356C36.8444 39.8176 36.4392 39.3777 35.9458 39.0561L33.615 37.5426C32.9145 37.0802 32.3401 36.4507 31.9438 35.7108C31.5474 34.971 31.3415 34.1441 31.3447 33.3047V32.3437C31.3447 32.143 31.4244 31.9505 31.5663 31.8086C31.7083 31.6666 31.9007 31.5869 32.1014 31.5869C32.3021 31.5869 32.4946 31.6666 32.6366 31.8086C32.7785 31.9505 32.8582 32.143 32.8582 32.3437V33.2972C32.8572 33.8862 33.0035 34.4661 33.2837 34.9841C33.5639 35.5022 33.9691 35.9421 34.4625 36.2637L36.8009 37.7772C37.5004 38.2406 38.074 38.8703 38.4703 39.6099C38.8665 40.3495 39.073 41.1759 39.0712 42.015V50.6193C39.0712 51.1278 38.9709 51.6313 38.7761 52.1009C38.5813 52.5706 38.2958 52.9972 37.9359 53.3564C37.576 53.7156 37.1488 54.0003 36.6787 54.1942C36.2087 54.3881 35.705 54.4874 35.1966 54.4864V54.4864Z" fill="#2A6BBC"/>
<path d="M32.7137 33.1008H18.4109C17.7576 33.0652 17.1428 32.7806 16.6928 32.3055C16.2429 31.8305 15.9922 31.201 15.9922 30.5467C15.9922 29.8924 16.2429 29.263 16.6928 28.7879C17.1428 28.3128 17.7576 28.0283 18.4109 27.9927H32.7137C33.367 28.0283 33.9819 28.3128 34.4318 28.7879C34.8817 29.263 35.1324 29.8924 35.1324 30.5467C35.1324 31.201 34.8817 31.8305 34.4318 32.3055C33.9819 32.7806 33.367 33.0652 32.7137 33.1008V33.1008ZM18.4109 29.5138C18.1503 29.536 17.9075 29.6553 17.7306 29.8479C17.5536 30.0406 17.4554 30.2927 17.4554 30.5543C17.4554 30.8159 17.5536 31.068 17.7306 31.2606C17.9075 31.4533 18.1503 31.5726 18.4109 31.5948H32.7137C32.9743 31.5726 33.2171 31.4533 33.394 31.2606C33.571 31.068 33.6692 30.8159 33.6692 30.5543C33.6692 30.2927 33.571 30.0406 33.394 29.8479C33.2171 29.6553 32.9743 29.536 32.7137 29.5138H18.4109Z" fill="#2A6BBC"/>
<path d="M26.7686 25.9418C26.5905 25.945 26.4169 25.8853 26.2785 25.7732C26.1401 25.661 26.0456 25.5037 26.0118 25.3288C25.4256 22.5827 25.403 19.7461 25.9454 16.991C26.4878 14.2359 27.584 11.6196 29.1675 9.30067C30.5991 7.25939 32.4308 5.53054 34.5513 4.2192C36.6718 2.90786 39.0369 2.04143 41.5026 1.67256C41.8962 1.60698 42.2972 1.55401 42.7059 1.51364C42.8928 1.49723 43.0792 1.55086 43.2288 1.66413C43.3785 1.7774 43.4807 1.94223 43.5156 2.12662C44.1109 5.03266 44.1109 8.02923 43.5156 10.9353C43.4936 11.0394 43.4499 11.1377 43.3873 11.2237C43.3247 11.3098 43.2446 11.3817 43.1524 11.4347L38.8086 13.9472L41.4724 14.0607C41.5937 14.0711 41.7108 14.1107 41.8136 14.1761C41.9164 14.2415 42.0019 14.3307 42.0628 14.4362C42.1237 14.5417 42.1582 14.6603 42.1635 14.782C42.1687 14.9037 42.1445 15.0249 42.0929 15.1353C40.7365 18.126 38.6099 20.7026 35.9305 22.6014C33.2512 24.5002 30.1155 25.653 26.8443 25.9418H26.7686ZM42.1535 3.10283L41.7372 3.16337C39.4752 3.50443 37.306 4.30142 35.3613 5.506C33.4165 6.71058 31.7367 8.29765 30.4237 10.1709C27.5943 14.3184 26.5072 19.4113 27.3967 24.3526C30.0809 24.0063 32.6437 23.0244 34.8721 21.4884C37.1005 19.9524 38.93 17.9066 40.2086 15.5212L36.107 15.3472C35.9432 15.3404 35.786 15.2807 35.6591 15.177C35.5322 15.0733 35.4424 14.9312 35.4032 14.772C35.3648 14.6135 35.3787 14.4468 35.4428 14.2968C35.5069 14.1468 35.6178 14.0215 35.7589 13.9396L42.0626 10.292C42.5176 7.91983 42.5484 5.48576 42.1535 3.10283V3.10283Z" fill="#2A6BBC"/>
<path d="M25.6719 29.5137H25.5584C25.46 29.4989 25.3654 29.4649 25.2802 29.4135C25.1949 29.3621 25.1206 29.2944 25.0616 29.2143C25.0025 29.1341 24.9599 29.0431 24.9361 28.9465C24.9122 28.8498 24.9077 28.7494 24.9228 28.651C25.1583 27.3391 25.5734 26.0659 26.1563 24.8672C27.6558 21.815 29.4638 18.9243 31.5519 16.2402C31.6724 16.0796 31.8516 15.9735 32.0503 15.9451C32.249 15.9167 32.4508 15.9684 32.6114 16.0889C32.772 16.2093 32.8781 16.3886 32.9065 16.5872C32.9349 16.7859 32.8832 16.9877 32.7628 17.1483C30.7411 19.738 28.989 22.5273 27.5336 25.4726C27.0111 26.5366 26.6369 27.6671 26.4211 28.8326C26.4024 29.0187 26.3155 29.1912 26.1772 29.3169C26.0389 29.4427 25.8589 29.5128 25.6719 29.5137V29.5137Z" fill="#2A6BBC"/>
</svg>
