<svg width="64" height="80" viewBox="0 0 64 80" fill="none" xmlns="http://www.w3.org/2000/svg">
<g clip-path="url(#clip0_1387_10625)">
<path d="M62.831 58.602C63.4731 58.602 64 58.0757 64 57.4342V3.51974C64 1.57895 62.4193 0 60.4765 0H7.75508C5.81219 0 4.21508 1.57895 4.21508 3.51974V9.67105C1.81117 10.1316 0 12.2533 0 14.7862C0 17.3191 1.81117 19.4408 4.21508 19.9178V22.2697C1.81117 22.7467 0 24.8684 0 27.4013C0 29.9342 1.81117 32.0559 4.21508 32.5329V34.8849C1.81117 35.3454 0 37.4671 0 40C0 42.5329 1.81117 44.6546 4.21508 45.1316V47.4836C1.81117 47.9441 0 50.0658 0 52.5987C0 55.1316 1.81117 57.2533 4.21508 57.7303V60.0822C1.81117 60.5592 0 62.6809 0 65.2138C0 67.7467 1.81117 69.8684 4.21508 70.3454V76.4967C4.21508 78.4375 5.79573 80.0164 7.73862 80.0164H60.46C62.4029 80.0164 63.9835 78.4375 63.9835 76.4967V62.1382C63.9835 61.4967 63.4567 60.9704 62.8145 60.9704C62.1724 60.9704 61.6455 61.4967 61.6455 62.1382V76.4967C61.6455 77.1382 61.1186 77.6645 60.4765 77.6645H7.75508C7.11294 77.6645 6.58606 77.1382 6.58606 76.4967V62.6809C7.49164 63.1579 8.11731 64.1283 8.11731 65.2138C8.11731 65.8553 8.6442 66.3816 9.28634 66.3816C9.92848 66.3816 10.4554 65.8553 10.4554 65.2138C10.4554 62.7961 8.80885 60.7566 6.56959 60.1645V50.0658C7.47517 50.5428 8.10085 51.5132 8.10085 52.5987C8.10085 53.2401 8.62773 53.7664 9.26987 53.7664C9.91201 53.7664 10.4389 53.2401 10.4389 52.5987C10.4389 50.1809 8.79239 48.1414 6.55313 47.5493V37.4507C7.45871 37.9276 8.08438 38.898 8.08438 39.9836C8.08438 40.625 8.61127 41.1513 9.25341 41.1513C9.89555 41.1513 10.4224 40.625 10.4224 39.9836C10.4224 37.5658 8.77592 35.5263 6.53666 34.9342V24.8355C7.44224 25.3125 8.06792 26.2829 8.06792 27.3684C8.06792 28.0099 8.5948 28.5362 9.23694 28.5362C9.87908 28.5362 10.406 28.0099 10.406 27.3684C10.406 24.9507 8.75945 22.9112 6.5202 22.3191V12.2533C7.42578 12.7303 8.05145 13.7007 8.05145 14.7862C8.05145 15.4276 8.57834 15.9539 9.22048 15.9539C9.86262 15.9539 10.3895 15.4276 10.3895 14.7862C10.3895 12.3684 8.74299 10.3289 6.50373 9.73684V3.51974C6.50373 2.87829 7.03061 2.35197 7.67276 2.35197H60.3941C61.0363 2.35197 61.5632 2.87829 61.5632 3.51974V57.4342C61.6455 58.0757 62.1724 58.602 62.831 58.602ZM2.35452 14.7862C2.35452 13.5526 3.12838 12.5 4.23154 12.0888V17.4671C3.12838 17.0724 2.35452 16.0197 2.35452 14.7862ZM2.35452 27.4013C2.35452 26.1678 3.12838 25.1151 4.23154 24.7039V30.0822C3.12838 29.6711 2.35452 28.6349 2.35452 27.4013ZM2.35452 40C2.35452 38.7664 3.12838 37.7138 4.23154 37.3026V42.6809C3.12838 42.2862 2.35452 41.2336 2.35452 40ZM2.35452 52.5987C2.35452 51.3651 3.12838 50.3125 4.23154 49.9013V55.2796C3.12838 54.8849 2.35452 53.8322 2.35452 52.5987ZM2.35452 65.2138C2.35452 63.9803 3.12838 62.9276 4.23154 62.5164V67.8947C3.12838 67.4836 2.35452 66.4474 2.35452 65.2138Z" fill="#353F60"/>
<path d="M38.712 8.83203C38.0699 8.83203 37.543 9.35835 37.543 9.99979V15.0656C37.543 15.707 38.0699 16.2333 38.712 16.2333C39.3541 16.2333 39.881 15.707 39.881 15.0656V11.2333C46.4835 11.7926 51.7689 17.0722 52.3287 23.6676H39.881V19.7695C39.881 19.1281 39.3541 18.6018 38.712 18.6018C38.0699 18.6018 37.543 19.1281 37.543 19.7695V24.8353C37.543 25.4768 38.0699 26.0031 38.712 26.0031H53.5636C54.2057 26.0031 54.7326 25.4768 54.7326 24.8353C54.7326 16.0031 47.5538 8.83203 38.712 8.83203Z" fill="#353F60"/>
<path d="M33.8516 14.671C25.6684 14.671 19 21.3322 19 29.5065C19 30.148 19.5269 30.6743 20.169 30.6743C20.8112 30.6743 21.3381 30.148 21.3381 29.5065C21.3381 23.0098 26.3105 17.6644 32.6661 17.0723V29.5065C32.6661 29.6546 32.699 29.7861 32.7484 29.9177L37.1446 41.546C36.0908 41.8421 34.9877 41.9901 33.8351 41.9901C28.5827 41.9901 23.8572 38.6677 22.0625 33.7335C21.8485 33.125 21.1734 32.8125 20.5642 33.0263C19.955 33.2401 19.6421 33.9144 19.8562 34.523C21.9637 40.3947 27.5948 44.3421 33.8351 44.3421C35.6627 44.3421 37.408 44.0131 39.0216 43.4046C39.0381 43.4046 39.071 43.3881 39.0875 43.3881C39.1039 43.3881 39.1204 43.3717 39.1533 43.3552C44.7186 41.2171 48.6866 35.8059 48.6866 29.5065C48.6866 28.8651 48.1598 28.3388 47.5176 28.3388H35.0206V15.8388C35.037 15.1973 34.5102 14.671 33.8516 14.671ZM39.3509 40.7072L35.5475 30.6743H46.2992C45.8876 35.0986 43.1708 38.8486 39.3509 40.7072Z" fill="#353F60"/>
<path d="M53.5615 51.4297H18.5401C17.898 51.4297 17.3711 51.956 17.3711 52.5974C17.3711 53.2389 17.898 53.7652 18.5401 53.7652H53.5615C54.2036 53.7652 54.7305 53.2389 54.7305 52.5974C54.7305 51.956 54.2036 51.4297 53.5615 51.4297Z" fill="#353F60"/>
<path d="M54.7305 59.7849C54.7305 59.1435 54.2036 58.6172 53.5615 58.6172H18.5401C17.898 58.6172 17.3711 59.1435 17.3711 59.7849C17.3711 60.4264 17.898 60.9527 18.5401 60.9527H53.5615C54.2036 60.9527 54.7305 60.4264 54.7305 59.7849Z" fill="#353F60"/>
<path d="M18.5401 65.7729C17.898 65.7729 17.3711 66.2993 17.3711 66.9407C17.3711 67.5822 17.898 68.1085 18.5401 68.1085H43.4683C44.1105 68.1085 44.6374 67.5822 44.6374 66.9407C44.6374 66.2993 44.1105 65.7729 43.4683 65.7729H18.5401Z" fill="#353F60"/>
</g>
<defs>
<clipPath id="clip0_1387_10625">
<rect width="64" height="80" fill="white"/>
</clipPath>
</defs>
</svg>
