<svg width="56" height="56" viewBox="0 0 56 56" fill="none" xmlns="http://www.w3.org/2000/svg">
<g clip-path="url(#clip0_651_2784)">
<path d="M35.4367 27.7681C36.3674 27.0691 37.0547 26.095 37.4012 24.9838C37.7477 23.8725 37.7358 22.6805 37.3674 21.5763C36.9989 20.4722 36.2925 19.5119 35.3481 18.8315C34.4037 18.151 33.2692 17.7849 32.1052 17.7849C30.9412 17.7849 29.8067 18.151 28.8623 18.8315C27.9179 19.5119 27.2114 20.4722 26.8429 21.5763C26.4745 22.6805 26.4626 23.8725 26.8091 24.9838C27.1556 26.095 27.8429 27.0691 28.7736 27.7681C27.8523 28.1202 26.9929 28.6163 26.2273 29.2381C25.8608 28.9687 25.468 28.7371 25.0548 28.5469C25.6615 27.9798 26.0836 27.2433 26.2661 26.4331C26.4487 25.623 26.3833 24.7767 26.0784 24.0042C25.7736 23.2317 25.2435 22.5688 24.5569 22.1016C23.8703 21.6344 23.059 21.3846 22.2286 21.3846C21.3981 21.3846 20.5869 21.6344 19.9003 22.1016C19.2137 22.5688 18.6836 23.2317 18.3787 24.0042C18.0739 24.7767 18.0085 25.623 18.1911 26.4331C18.3736 27.2433 18.7957 27.9798 19.4023 28.5469C18.2309 29.0868 17.238 29.9501 16.5404 31.0352C15.8429 32.1202 15.4697 33.3819 15.4648 34.6719C15.4648 34.9039 15.557 35.1265 15.7211 35.2906C15.8852 35.4547 16.1078 35.5469 16.3398 35.5469C16.5719 35.5469 16.7945 35.4547 16.9586 35.2906C17.1227 35.1265 17.2148 34.9039 17.2148 34.6719C17.214 33.7683 17.4573 32.8813 17.9192 32.1046C18.381 31.328 19.0441 30.6906 19.8384 30.2598C20.6327 29.829 21.5286 29.6209 22.4315 29.6575C23.3343 29.694 24.2105 29.9739 24.9673 30.4675C23.5584 32.1354 22.7837 34.2473 22.7798 36.4306C22.7798 36.6627 22.872 36.8852 23.0361 37.0493C23.2002 37.2134 23.4228 37.3056 23.6548 37.3056C23.8869 37.3056 24.1095 37.2134 24.2736 37.0493C24.4377 36.8852 24.5298 36.6627 24.5298 36.4306C24.5298 34.425 25.3266 32.5015 26.7448 31.0833C28.1629 29.6652 30.0864 28.8684 32.092 28.8684C34.0977 28.8684 36.0211 29.6652 37.4393 31.0833C38.8575 32.5015 39.6542 34.425 39.6542 36.4306C39.6542 36.6627 39.7464 36.8852 39.9105 37.0493C40.0746 37.2134 40.2972 37.3056 40.5292 37.3056C40.7613 37.3056 40.9838 37.2134 41.1479 37.0493C41.312 36.8852 41.4042 36.6627 41.4042 36.4306C41.3976 34.5537 40.8244 32.7225 39.7596 31.1769C38.6948 29.6312 37.1881 28.4431 35.4367 27.7681V27.7681ZM19.8398 25.5369C19.8398 25.0644 19.9799 24.6026 20.2424 24.2097C20.5049 23.8169 20.878 23.5107 21.3145 23.3299C21.7509 23.1491 22.2312 23.1018 22.6946 23.194C23.158 23.2862 23.5836 23.5137 23.9177 23.8478C24.2518 24.1818 24.4793 24.6075 24.5714 25.0708C24.6636 25.5342 24.6163 26.0145 24.4355 26.451C24.2547 26.8875 23.9485 27.2606 23.5557 27.523C23.1629 27.7855 22.701 27.9256 22.2286 27.9256C21.5951 27.9256 20.9875 27.6739 20.5395 27.226C20.0915 26.778 19.8398 26.1704 19.8398 25.5369V25.5369ZM28.3098 23.3494C28.3055 22.5972 28.5247 21.8607 28.9395 21.2332C29.3543 20.6057 29.9461 20.1156 30.6399 19.825C31.3337 19.5343 32.0981 19.4562 32.8363 19.6006C33.5745 19.745 34.2532 20.1054 34.7863 20.6361C35.3194 21.1667 35.6829 21.8437 35.8307 22.5812C35.9785 23.3188 35.904 24.0836 35.6166 24.7787C35.3291 25.4738 34.8417 26.0679 34.2162 26.4856C33.5907 26.9033 32.8552 27.1258 32.103 27.125C31.0999 27.1227 30.1385 26.7241 29.428 26.0161C28.7175 25.3081 28.3156 24.348 28.3098 23.345V23.3494Z" fill="#2A6BBC"/>
<path d="M55.125 27.125H50.7281C50.5015 21.4017 48.1264 15.9739 44.0762 11.9238C40.0261 7.8736 34.5983 5.49848 28.875 5.27188V0.875C28.875 0.642936 28.7828 0.420376 28.6187 0.256282C28.4546 0.0921873 28.2321 0 28 0C27.7679 0 27.5454 0.0921873 27.3813 0.256282C27.2172 0.420376 27.125 0.642936 27.125 0.875V5.27188C21.4017 5.49848 15.9739 7.8736 11.9238 11.9238C7.8736 15.9739 5.49848 21.4017 5.27188 27.125H0.875C0.642936 27.125 0.420376 27.2172 0.256282 27.3813C0.0921873 27.5454 0 27.7679 0 28C0 28.2321 0.0921873 28.4546 0.256282 28.6187C0.420376 28.7828 0.642936 28.875 0.875 28.875H5.27188C5.49848 34.5983 7.8736 40.0261 11.9238 44.0762C15.9739 48.1264 21.4017 50.5015 27.125 50.7281V55.125C27.125 55.3571 27.2172 55.5796 27.3813 55.7437C27.5454 55.9078 27.7679 56 28 56C28.2321 56 28.4546 55.9078 28.6187 55.7437C28.7828 55.5796 28.875 55.3571 28.875 55.125V50.7281C34.5983 50.5015 40.0261 48.1264 44.0762 44.0762C48.1264 40.0261 50.5015 34.5983 50.7281 28.875H55.125C55.3571 28.875 55.5796 28.7828 55.7437 28.6187C55.9078 28.4546 56 28.2321 56 28C56 27.7679 55.9078 27.5454 55.7437 27.3813C55.5796 27.2172 55.3571 27.125 55.125 27.125ZM28.875 48.9781V44.625C28.875 44.3929 28.7828 44.1704 28.6187 44.0063C28.4546 43.8422 28.2321 43.75 28 43.75C27.7679 43.75 27.5454 43.8422 27.3813 44.0063C27.2172 44.1704 27.125 44.3929 27.125 44.625V48.9781C21.8656 48.7529 16.8821 46.5626 13.1598 42.8402C9.43743 39.1179 7.24712 34.1344 7.02187 28.875H11.375C11.6071 28.875 11.8296 28.7828 11.9937 28.6187C12.1578 28.4546 12.25 28.2321 12.25 28C12.25 27.7679 12.1578 27.5454 11.9937 27.3813C11.8296 27.2172 11.6071 27.125 11.375 27.125H7.02187C7.24712 21.8656 9.43743 16.8821 13.1598 13.1598C16.8821 9.43743 21.8656 7.24712 27.125 7.02187V10.9375C27.125 11.1696 27.2172 11.3921 27.3813 11.5562C27.5454 11.7203 27.7679 11.8125 28 11.8125C28.2321 11.8125 28.4546 11.7203 28.6187 11.5562C28.7828 11.3921 28.875 11.1696 28.875 10.9375V7.02187C34.1344 7.24712 39.1179 9.43743 42.8402 13.1598C46.5626 16.8821 48.7529 21.8656 48.9781 27.125H44.625C44.3929 27.125 44.1704 27.2172 44.0063 27.3813C43.8422 27.5454 43.75 27.7679 43.75 28C43.75 28.2321 43.8422 28.4546 44.0063 28.6187C44.1704 28.7828 44.3929 28.875 44.625 28.875H48.9781C48.7529 34.1344 46.5626 39.1179 42.8402 42.8402C39.1179 46.5626 34.1344 48.7529 28.875 48.9781V48.9781Z" fill="#2A6BBC"/>
</g>
<defs>
<clipPath id="clip0_651_2784">
<rect width="56" height="56" fill="white"/>
</clipPath>
</defs>
</svg>
