<svg width="27" height="26" viewBox="0 0 27 26" fill="none" xmlns="http://www.w3.org/2000/svg">
<circle cx="13.3672" cy="13" r="12.5" stroke="#3D5278"/>
<path d="M19.5108 8.03916C19.3846 7.66079 19.1324 7.40855 18.8802 7.1563C18.6279 6.90405 18.2495 6.65181 17.9973 6.52568C17.745 6.39956 17.2406 6.27344 16.4838 6.27344C15.6009 6.27344 15.3487 6.27344 13.2046 6.27344C11.0605 6.27344 10.8083 6.27344 9.9254 6.27344C9.16866 6.27344 8.66416 6.39956 8.41192 6.52568C8.28579 6.65181 8.03355 6.77793 7.65518 7.03018C7.40293 7.40855 7.27681 7.66079 7.15068 8.03916C7.02456 8.29141 6.89844 8.66978 6.89844 9.42652C6.89844 10.3094 6.89844 10.5616 6.89844 12.7057C6.89844 14.8498 6.89844 15.1021 6.89844 15.9849C6.89844 16.7417 7.02456 17.2462 7.15068 17.4984C7.27681 17.8768 7.52905 18.129 7.7813 18.3813C8.03355 18.6335 8.41192 18.8858 8.66416 19.0119C8.91641 19.138 9.4209 19.2641 10.1776 19.2641C11.0605 19.2641 11.3128 19.2641 13.4569 19.2641C15.6009 19.2641 15.8532 19.2641 16.7361 19.2641C17.4928 19.2641 17.9973 19.138 18.2495 19.0119C19.0063 18.7596 19.5108 18.2552 19.763 17.4984C19.8891 17.2462 20.0153 16.7417 20.0153 15.9849C20.0153 15.1021 20.0153 14.8498 20.0153 12.7057C20.0153 10.5616 20.0153 10.3094 20.0153 9.42652C19.763 8.66978 19.6369 8.29141 19.5108 8.03916ZM13.3307 16.7417C11.0605 16.7417 9.29478 14.8498 9.29478 12.7057C9.29478 10.5616 11.0605 8.66978 13.3307 8.66978C15.6009 8.66978 17.3667 10.5616 17.3667 12.7057C17.3667 14.8498 15.6009 16.7417 13.3307 16.7417ZM17.6189 9.42652C17.1144 9.42652 16.6099 9.04815 16.6099 8.41753C16.6099 7.91304 16.9883 7.40855 17.6189 7.40855C18.1234 7.40855 18.6279 7.78692 18.6279 8.41753C18.5018 8.92203 18.1234 9.42652 17.6189 9.42652Z" fill="#3D5278"/>
</svg>
