<svg width="42" height="42" viewBox="0 0 42 42" fill="none" xmlns="http://www.w3.org/2000/svg">
<circle cx="21" cy="21" r="21" fill="#E9E9E9"/>
<g clip-path="url(#clip0_2019_10250)">
<path d="M31.0954 29.0652L30.7427 27.3015C30.7282 27.2289 30.6925 27.1623 30.6402 27.1099L29.1382 25.6079L28.6553 25.1251H31.875C31.9745 25.1251 32.0698 25.0856 32.1402 25.0152C32.2105 24.9449 32.25 24.8495 32.25 24.7501C32.25 24.6506 32.2105 24.5552 32.1402 24.4849C32.0698 24.4146 31.9745 24.3751 31.875 24.3751H28.125V19.2804L28.9552 18.4501C29.2925 18.5899 29.6532 18.6649 30.0184 18.6708C30.3352 18.6745 30.6482 18.6003 30.9296 18.4548C31.6825 18.0581 32.1262 17.1593 32.2485 15.7831C32.2558 15.7014 32.2361 15.6196 32.1924 15.5501C32.1487 15.4807 32.0835 15.4275 32.0067 15.3987C31.4433 15.2214 30.8335 15.2656 30.3015 15.5223C29.5351 15.8879 28.9463 16.653 28.5495 17.7949L28.125 18.2197V15.8816L29.3989 14.2892C29.5742 14.3181 29.7515 14.3327 29.9291 14.3329C30.3566 14.3329 30.89 14.2449 31.3447 13.9017C31.9453 13.4488 32.25 12.6827 32.25 11.6251C32.25 11.5348 32.2175 11.4476 32.1583 11.3794C32.0992 11.3112 32.0174 11.2666 31.9281 11.2538C31.8731 11.2459 30.5738 11.0707 29.677 11.8485C29.1723 12.2862 28.904 12.9224 28.8776 13.7403L27.9301 14.9246L27.4005 12.8068C27.571 12.4884 27.8965 11.7229 27.5598 11.0007C27.2395 10.3133 26.4341 9.89327 25.1661 9.75236C25.078 9.74242 24.9892 9.76407 24.9156 9.81345C24.842 9.86284 24.7883 9.93676 24.7641 10.022C24.748 10.0783 24.3786 11.4095 25.0695 12.3254C25.4235 12.7947 25.9728 13.059 26.7041 13.1139L27.375 15.7962V17.5115L26.6565 16.4339C26.7487 16.008 26.6764 15.5631 26.4541 15.1884C26.0275 14.4766 25.0897 14.0355 23.6664 13.8774C23.6175 13.8718 23.5679 13.876 23.5206 13.8897C23.4733 13.9034 23.4291 13.9263 23.3906 13.957C23.3521 13.9878 23.3201 14.0259 23.2964 14.0691C23.2726 14.1122 23.2577 14.1597 23.2523 14.2086C23.2443 14.2808 23.0673 15.9841 24.0516 16.7501C24.3556 16.9867 24.725 17.105 25.1565 17.105C25.4763 17.0994 25.7935 17.0463 26.0977 16.9475L27.375 18.8636V24.3751H20.625V20.132C21.0683 20.3388 21.4805 20.4429 21.8589 20.4429C22.137 20.4451 22.4119 20.3836 22.6625 20.2631C23.7997 19.7127 23.9902 18.1095 23.9977 18.0415C24.0084 17.9447 23.9811 17.8475 23.9214 17.7705C23.8617 17.6935 23.7745 17.6428 23.6781 17.629C22.1869 17.4162 21.2442 17.8868 20.7156 18.3194C20.6842 18.345 20.6541 18.371 20.6249 18.3968V17.6251H20.6242C20.6521 17.4484 20.737 16.6831 20.2406 16.0821C19.8533 15.613 19.2321 15.3751 18.3945 15.3751C18.3068 15.3748 18.2218 15.4056 18.1547 15.4621C18.0875 15.5185 18.0426 15.5969 18.0277 15.6834C18.0197 15.7313 17.8388 16.8626 18.5171 17.5359C18.8283 17.8448 19.252 18 19.7811 18C19.8119 18 19.8435 17.9989 19.8748 17.9978V20.0371C19.7948 19.9718 19.7079 19.9068 19.6141 19.8442C19.0312 19.4556 18.0625 19.0839 16.7562 19.5192C16.6682 19.5485 16.5942 19.6094 16.5485 19.6902C16.5028 19.7709 16.4886 19.8657 16.5087 19.9563C16.5242 20.026 16.9018 21.6681 18.0896 22.064C18.2593 22.1207 18.4372 22.1495 18.6161 22.1492C19.0124 22.1492 19.433 22.0128 19.8748 21.7413V24.3751H13.5V23.038C13.7938 23.1334 14.1002 23.1847 14.4091 23.1901C14.7438 23.1984 15.0733 23.1066 15.3555 22.9265C16.1162 22.4251 16.125 21.4177 16.125 21.3751C16.125 21.2936 16.0985 21.2143 16.0494 21.1493C16.0004 21.0842 15.9315 21.0369 15.8531 21.0145C14.7877 20.7098 13.9651 20.7688 13.408 21.189C13.3023 21.2687 13.2073 21.3615 13.125 21.4651C13.0428 21.3615 12.9477 21.2687 12.8421 21.189C12.285 20.7688 11.4624 20.71 10.397 21.0145C10.3186 21.0369 10.2497 21.0842 10.2006 21.1493C10.1515 21.2143 10.125 21.2936 10.125 21.3751C10.125 21.4177 10.1338 22.4248 10.8945 22.9266C11.1611 23.1024 11.4773 23.1903 11.8409 23.1903C12.1498 23.1848 12.4562 23.1334 12.75 23.038V24.3751H10.125C10.0255 24.3751 9.93016 24.4146 9.85983 24.4849C9.78951 24.5552 9.75 24.6506 9.75 24.7501C9.75 24.8495 9.78951 24.9449 9.85983 25.0152C9.93016 25.0856 10.0255 25.1251 10.125 25.1251H12.375L11.7 26.0251C11.6513 26.09 11.625 26.1689 11.625 26.2501V27.3751C11.625 27.4745 11.6645 27.5699 11.7348 27.6402C11.8052 27.7106 11.9005 27.7501 12 27.7501C12.0995 27.7501 12.1948 27.7106 12.2652 27.6402C12.3355 27.5699 12.375 27.4745 12.375 27.3751V26.3751L13.125 25.375L13.875 26.3751V27.3751C13.875 27.4745 13.9145 27.5699 13.9848 27.6402C14.0552 27.7106 14.1505 27.7501 14.25 27.7501C14.3495 27.7501 14.4448 27.7106 14.5152 27.6402C14.5855 27.5699 14.625 27.4745 14.625 27.3751V26.2501C14.625 26.1689 14.5987 26.09 14.55 26.0251L13.875 25.1251H19.3447L18.4848 25.9849C18.447 26.0227 18.4177 26.0683 18.3989 26.1184L17.2739 29.1184C17.2559 29.1646 17.2473 29.214 17.2485 29.2636C17.2497 29.3132 17.2608 29.3621 17.2811 29.4074C17.3013 29.4527 17.3304 29.4936 17.3665 29.5275C17.4027 29.5615 17.4453 29.588 17.4917 29.6054C17.5382 29.6229 17.5877 29.6309 17.6372 29.6291C17.6868 29.6272 17.7356 29.6156 17.7806 29.5948C17.8257 29.574 17.8662 29.5444 17.8997 29.5078C17.9333 29.4713 17.9592 29.4284 17.9761 29.3817L19.0726 26.4578L19.0844 26.446L19.875 27.5001V28.8751C19.875 28.9745 19.9145 29.0699 19.9848 29.1402C20.0552 29.2106 20.1505 29.2501 20.25 29.2501C20.3495 29.2501 20.4448 29.2106 20.5152 29.1402C20.5855 29.0699 20.625 28.9745 20.625 28.8751V27.3751C20.625 27.2939 20.5987 27.215 20.55 27.1501L19.6201 25.9102L20.25 25.2804L22.5248 27.5553L22.8801 29.6867C22.8946 29.7742 22.9398 29.8537 23.0074 29.9111C23.075 29.9684 23.1608 30 23.2495 30.0001C23.2703 30 23.2911 29.9983 23.3116 29.995C23.3602 29.9869 23.4067 29.9693 23.4485 29.9432C23.4903 29.9171 23.5266 29.8831 23.5552 29.843C23.5838 29.8029 23.6043 29.7576 23.6154 29.7096C23.6265 29.6617 23.628 29.612 23.6199 29.5634L23.2449 27.3134C23.2321 27.2363 23.1954 27.1651 23.1402 27.1098L21.1553 25.1251H26.9494L25.5869 26.76C25.5424 26.8134 25.5136 26.8782 25.5037 26.947L25.1408 29.4876L23.688 31.6668C23.6604 31.7078 23.6411 31.7538 23.6313 31.8023C23.6215 31.8507 23.6214 31.9006 23.631 31.9491C23.6405 31.9976 23.6596 32.0437 23.687 32.0848C23.7145 32.1259 23.7497 32.1611 23.7909 32.1885C23.832 32.216 23.8781 32.235 23.9266 32.2445C23.9751 32.254 24.025 32.2539 24.0734 32.2441C24.1218 32.2342 24.1678 32.215 24.2088 32.1873C24.2497 32.1596 24.2848 32.1242 24.312 32.0829L25.812 29.8329C25.8431 29.7863 25.8633 29.7334 25.8713 29.6779L26.2312 27.1582L27.7752 25.3054L28.3725 25.9027L27.0822 27.5157C27.029 27.5822 27 27.6649 27 27.7501V28.7981L25.9053 31.3524C25.8661 31.4438 25.8649 31.547 25.9018 31.6394C25.9388 31.7317 26.0109 31.8056 26.1023 31.8447C26.1938 31.8839 26.297 31.8851 26.3893 31.8482C26.4817 31.8112 26.5556 31.7391 26.5947 31.6477L27.5317 29.4613L28.5435 30.2204L28.8862 31.5912C28.8979 31.6393 28.9189 31.6846 28.9481 31.7245C28.9774 31.7644 29.0142 31.7981 29.0566 31.8237C29.0989 31.8493 29.1459 31.8663 29.1948 31.8737C29.2437 31.881 29.2936 31.8787 29.3416 31.8667C29.3896 31.8547 29.4347 31.8333 29.4744 31.8038C29.5141 31.7742 29.5476 31.7372 29.5729 31.6946C29.5982 31.6521 29.6148 31.605 29.6219 31.5561C29.6289 31.5071 29.6261 31.4572 29.6138 31.4093L29.2388 29.9093C29.2179 29.8258 29.1689 29.7519 29.1 29.7003L27.75 28.6876V27.8816L28.9061 26.4365L30.0296 27.5599L30.3823 29.3236C30.3968 29.3962 30.4325 29.4629 30.4848 29.5152L31.6098 30.6402C31.6447 30.6751 31.686 30.7027 31.7315 30.7215C31.777 30.7404 31.8258 30.7501 31.875 30.7501C31.9242 30.7501 31.973 30.7404 32.0185 30.7215C32.064 30.7027 32.1053 30.6751 32.1402 30.6402C32.175 30.6054 32.2026 30.5641 32.2215 30.5186C32.2403 30.4731 32.25 30.4243 32.25 30.3751C32.25 30.3258 32.2403 30.2771 32.2215 30.2316C32.2026 30.1861 32.175 30.1447 32.1402 30.1099L31.0954 29.0652ZM30.6112 16.2059C30.8754 16.076 31.1703 16.0211 31.4636 16.0472C31.3655 16.7373 31.1305 17.499 30.5832 17.7897C30.1588 18.015 29.6564 17.9058 29.3476 17.797C29.6652 16.995 30.0894 16.4604 30.6112 16.2059ZM30.1653 12.4179C30.5711 12.0637 31.1314 11.9896 31.4854 11.9825C31.4324 12.6009 31.2348 13.0435 30.8962 13.3008C30.4958 13.6049 29.963 13.6039 29.6397 13.5658C29.6895 13.0645 29.8657 12.6792 30.1653 12.4179V12.4179ZM24.5134 16.1591C24.105 15.8424 23.9962 15.1576 23.9848 14.6779C24.9155 14.832 25.541 15.1353 25.8047 15.5638C25.9235 15.758 25.97 15.9878 25.9359 16.2129C25.3034 16.419 24.8254 16.4011 24.5134 16.1591ZM25.6703 11.876C25.3659 11.4745 25.3789 10.8995 25.4256 10.5453C26.2037 10.6774 26.7031 10.9407 26.8792 11.3148C27.0545 11.6873 26.8974 12.1292 26.7828 12.368C26.2653 12.3329 25.8916 12.1678 25.6703 11.876V11.876ZM23.1763 18.3318C23.146 18.4468 23.1095 18.56 23.0667 18.6709C22.944 18.9879 22.7171 19.4045 22.3338 19.5889C21.9334 19.7817 21.4043 19.705 20.7582 19.3614C21.0428 18.9528 21.7432 18.2532 23.1763 18.3318ZM18.3285 21.3531C17.8308 21.1883 17.5065 20.5755 17.3447 20.1348C18.5954 19.8697 19.3881 20.5405 19.7321 20.9343C19.1838 21.3395 18.7127 21.4804 18.3285 21.3531ZM19.0447 17.0157C18.8156 16.7898 18.7503 16.4178 18.7431 16.1315C19.1632 16.179 19.4716 16.3177 19.6623 16.5459C19.8513 16.7719 19.8984 17.0556 19.904 17.2584C19.5192 17.2807 19.2308 17.1993 19.0447 17.0157ZM13.8656 21.7831C14.1736 21.5552 14.6784 21.5127 15.3363 21.6569C15.2883 21.8679 15.1806 22.145 14.9393 22.3024C14.6383 22.4986 14.1585 22.4838 13.5418 22.2618C13.5947 22.0712 13.7084 21.9031 13.8656 21.7831ZM11.3106 22.3024C11.0691 22.1449 10.9614 21.8675 10.9134 21.657C11.5714 21.5127 12.0759 21.5552 12.3842 21.7831C12.5414 21.9031 12.655 22.0712 12.7078 22.2618C12.0913 22.4838 11.6115 22.4986 11.3106 22.3024Z" fill="#2A6BBC"/>
<path d="M10.1245 17.6252C10.1385 17.6252 10.1524 17.6244 10.1663 17.6228C12.9869 17.3097 16.5468 15.175 19.974 11.7509L20.4696 12.2465C20.5189 12.2957 20.5808 12.3303 20.6486 12.3463C20.7164 12.3623 20.7873 12.3591 20.8534 12.3371C20.9195 12.3151 20.9781 12.2751 21.0227 12.2216C21.0673 12.1681 21.0962 12.1033 21.106 12.0343L21.3712 10.1781C21.3794 10.1204 21.3742 10.0617 21.3557 10.0064C21.3373 9.9512 21.3063 9.90101 21.2651 9.85984C21.224 9.81866 21.1738 9.78764 21.1185 9.76923C21.0633 9.75083 21.0045 9.74553 20.9469 9.75378L19.0906 10.0189C19.0217 10.0288 18.9568 10.0576 18.9034 10.1023C18.8499 10.1469 18.8099 10.2055 18.7879 10.2716C18.7658 10.3377 18.7627 10.4086 18.7787 10.4764C18.7947 10.5441 18.8292 10.6061 18.8785 10.6554L19.4437 11.2205C16.1358 14.5263 12.7385 16.5827 10.0836 16.8775C9.98833 16.8881 9.90076 16.9347 9.83884 17.0078C9.77691 17.0809 9.74532 17.175 9.75056 17.2707C9.7558 17.3663 9.79746 17.4564 9.867 17.5223C9.93653 17.5882 10.0287 17.625 10.1245 17.6252V17.6252ZM20.558 10.5671L20.4697 11.1859L19.9393 10.6555L20.558 10.5671Z" fill="#2A6BBC"/>
</g>
<defs>
<clipPath id="clip0_2019_10250">
<rect width="24" height="24" fill="white" transform="translate(9 9)"/>
</clipPath>
</defs>
</svg>
