<svg width="56" height="56" viewBox="0 0 56 56" fill="none" xmlns="http://www.w3.org/2000/svg">
<rect width="56" height="56" rx="8" fill="#FFD8EF"/>
<g clip-path="url(#clip0_2007_10246)">
<path d="M27.8775 20.651L30.0065 18.9596L27.4767 19.9583C23.6923 21.4521 23.1816 21.3158 20.651 18.129L18.9596 16L19.9588 18.5293C21.4525 22.3142 21.3158 22.8245 18.129 25.3554L16 27.0469L18.5297 26.0481C22.3142 24.5536 22.8245 24.6903 25.3554 27.8775L27.0469 30.0065L26.0477 27.4772C24.554 23.6923 24.6907 23.182 27.8775 20.651ZM24.5742 25.7242C23.628 24.7533 22.8455 24.3211 21.8306 24.3211C21.3053 24.3345 20.7844 24.4197 20.2822 24.5742C21.6899 23.2026 21.9656 22.1739 21.4323 20.2822C22.8043 21.6899 23.8326 21.9656 25.7242 21.4323C24.3166 22.8039 24.0408 23.8326 24.5742 25.7242Z" fill="#F71729"/>
<path d="M27.762 33.3787L29.891 31.6872L27.3617 32.686C25.0463 33.5999 24.817 33.538 23.2699 31.5894L21.5788 29.46L22.5772 31.9897C23.4911 34.3043 23.4296 34.5336 21.4806 36.0815L19.3516 37.7729L21.8809 36.7742C24.1963 35.8603 24.4256 35.9222 25.9727 37.8708L27.6637 40.0002L26.6654 37.4705C25.7515 35.1559 25.8129 34.9266 27.762 33.3787ZM25.3435 35.9812C24.9515 35.6124 24.4345 35.4055 23.8962 35.4021C23.7203 35.4035 23.5447 35.4204 23.3718 35.4527C23.868 34.9251 24.0667 34.184 23.9011 33.479C24.4288 33.9748 25.1699 34.1733 25.8748 34.0075C25.3779 34.5346 25.1783 35.2758 25.3435 35.9812Z" fill="#F71729"/>
<path d="M37.8714 24.4822L40.0004 22.7907L37.471 23.7895C35.1556 24.7038 34.9264 24.6415 33.3793 22.6929L31.6882 20.5635L32.6866 23.0932C33.6004 25.4078 33.539 25.6371 31.5899 27.185L29.4609 28.8765L31.9903 27.8777C34.3053 26.9634 34.5349 27.0261 36.082 28.9743L37.7731 31.1037L36.7747 28.574C35.8609 26.2594 35.9223 26.0301 37.8714 24.4822ZM35.4529 27.0847C35.0609 26.7159 34.5438 26.509 34.0056 26.5057C33.8297 26.507 33.6541 26.5239 33.4812 26.5562C33.9774 26.0287 34.1761 25.2875 34.0105 24.5825C34.5382 25.0783 35.2793 25.2768 35.9842 25.111C35.4873 25.6381 35.2877 26.3793 35.4529 27.0847Z" fill="#F71729"/>
</g>
<defs>
<clipPath id="clip0_2007_10246">
<rect width="24" height="24" fill="white" transform="translate(16 16)"/>
</clipPath>
</defs>
</svg>
