<svg width="333" height="333" viewBox="0 0 333 333" fill="none" xmlns="http://www.w3.org/2000/svg">
<g clip-path="url(#clip0_1116_8346)">
<path d="M136.312 230.392C199.85 230.392 251.354 178.881 251.354 115.343C251.354 51.8114 199.85 0.300476 136.312 0.300476C72.774 0.300476 21.2695 51.8114 21.2695 115.343H136.312V230.392Z" fill="#2A6BBC"/>
<path d="M179.878 270.398H146.599C140.965 270.398 136.398 274.965 136.398 280.599V332.7H190.078V280.598C190.079 274.965 185.512 270.398 179.878 270.398Z" fill="#3776C5"/>
<path d="M163.601 270.401C157.966 270.401 153.404 274.964 153.404 280.599V332.7H136.398V280.599C136.398 274.964 140.968 270.401 146.597 270.401H163.601Z" fill="#2A6BBC"/>
<path d="M251.339 139.094H218.06C212.426 139.094 207.859 143.662 207.859 149.295V332.7H261.539V149.295C261.539 143.662 256.973 139.094 251.339 139.094Z" fill="#EBAD50"/>
<path d="M235.059 139.097C229.432 139.097 224.862 143.66 224.862 149.295V332.7H207.863V149.295C207.863 143.66 212.426 139.096 218.061 139.096H235.059V139.097Z" fill="#E8A43F"/>
<path d="M322.8 215.15H289.521C283.887 215.15 279.32 219.717 279.32 225.351V332.699H333.001V225.351C333.001 219.717 328.434 215.15 322.8 215.15Z" fill="#F72839"/>
<path d="M306.523 215.151C300.888 215.151 296.325 219.714 296.325 225.349V332.7H279.32V225.349C279.32 219.714 283.89 215.151 289.525 215.151H306.523Z" fill="#F71729"/>
<path d="M115.042 251.663V136.614H0C0 200.152 51.5044 251.663 115.042 251.663Z" fill="#F71729" fill-opacity="0.9"/>
<path d="M64.1089 289.947H6.82961C4.05374 289.947 1.80469 287.697 1.80469 284.922C1.80469 282.147 4.05439 279.897 6.82961 279.897H60.8933L85.7623 225.972C86.9246 223.452 89.9105 222.35 92.4301 223.513C94.9504 224.676 96.0508 227.661 94.8892 230.181L68.6726 287.027C67.8512 288.807 66.0698 289.947 64.1089 289.947Z" fill="#2A6BBC"/>
<path d="M48.5775 268.313H6.82961C4.05374 268.313 1.80469 266.063 1.80469 263.288C1.80469 260.513 4.05439 258.263 6.82961 258.263H48.5775C51.3534 258.263 53.6024 260.513 53.6024 263.288C53.6031 266.062 51.3534 268.313 48.5775 268.313Z" fill="#2A6BBC"/>
<path d="M206.65 91.4612C205.817 91.4612 204.974 91.2537 204.196 90.8173C201.776 89.4593 200.915 86.3959 202.273 83.9758L235.621 24.5503C236.51 22.9653 238.186 21.9845 240.002 21.9845H310.914C313.69 21.9845 315.939 24.2342 315.939 27.0094C315.939 29.7846 313.69 32.0343 310.914 32.0343H242.945L211.037 88.8941C210.116 90.537 208.409 91.4612 206.65 91.4612Z" fill="#2A6BBC"/>
<path d="M310.912 12.0257H261.404C258.628 12.0257 256.379 9.77603 256.379 7.00081C256.379 4.22559 258.629 1.97589 261.404 1.97589H310.912C313.687 1.97589 315.936 4.22559 315.936 7.00081C315.936 9.77603 313.687 12.0257 310.912 12.0257Z" fill="#2A6BBC"/>
<path d="M322.949 118.224H286.439C283.663 118.224 281.414 115.974 281.414 113.199C281.414 110.424 283.664 108.174 286.439 108.174H322.949C325.725 108.174 327.974 110.424 327.974 113.199C327.974 115.974 325.725 118.224 322.949 118.224Z" fill="#2A6BBC"/>
<path d="M322.949 139.881H286.439C283.663 139.881 281.414 137.631 281.414 134.856C281.414 132.081 283.664 129.831 286.439 129.831H322.949C325.725 129.831 327.974 132.081 327.974 134.856C327.974 137.631 325.725 139.881 322.949 139.881Z" fill="#2A6BBC"/>
<path d="M322.949 161.538H286.439C283.663 161.538 281.414 159.288 281.414 156.513C281.414 153.738 283.664 151.488 286.439 151.488H322.949C325.725 151.488 327.974 153.738 327.974 156.513C327.974 159.288 325.725 161.538 322.949 161.538Z" fill="#2A6BBC"/>
</g>
<defs>
<clipPath id="clip0_1116_8346">
<rect width="333" height="333" fill="white"/>
</clipPath>
</defs>
</svg>
