<svg width="100" height="100" viewBox="0 0 100 100" fill="none" xmlns="http://www.w3.org/2000/svg">
<g clip-path="url(#clip0_2125_10431)">
<mask id="mask0_2125_10431" style="mask-type:luminance" maskUnits="userSpaceOnUse" x="0" y="0" width="100" height="100">
<path d="M0 7.62939e-06H100V100H0V7.62939e-06Z" fill="white"/>
</mask>
<g mask="url(#mask0_2125_10431)">
<path d="M17.248 15.7994V1.46485H82.7506V50" stroke="#333333" stroke-width="2" stroke-miterlimit="10" stroke-linecap="round" stroke-linejoin="round"/>
</g>
<path d="M17.248 50V22.643" stroke="#333333" stroke-width="2" stroke-miterlimit="10" stroke-linecap="round" stroke-linejoin="round"/>
<path d="M43.6867 36.1895H24.7461V8.9623H43.6867V36.1895Z" stroke="#333333" stroke-width="2" stroke-miterlimit="10" stroke-linecap="round" stroke-linejoin="round"/>
<path d="M75.2539 15.6699H50.7891V8.96172H75.2539V15.6699Z" stroke="#333333" stroke-width="2" stroke-miterlimit="10" stroke-linecap="round" stroke-linejoin="round"/>
<path d="M50.7891 22.7729H75.2539" stroke="#333333" stroke-width="2" stroke-miterlimit="10" stroke-linecap="round" stroke-linejoin="round"/>
<path d="M75.2539 29.0864H50.7891" stroke="#333333" stroke-width="2" stroke-miterlimit="10" stroke-linecap="round" stroke-linejoin="round"/>
<path d="M50.7891 36.1895H75.2539" stroke="#333333" stroke-width="2" stroke-miterlimit="10" stroke-linecap="round" stroke-linejoin="round"/>
<path d="M38.9512 43.292H75.2539" stroke="#333333" stroke-width="2" stroke-miterlimit="10" stroke-linecap="round" stroke-linejoin="round"/>
<path d="M24.7461 43.292H31.8488" stroke="#333333" stroke-width="2" stroke-miterlimit="10" stroke-linecap="round" stroke-linejoin="round"/>
<mask id="mask1_2125_10431" style="mask-type:luminance" maskUnits="userSpaceOnUse" x="0" y="0" width="100" height="100">
<path d="M0 7.62939e-06H100V100H0V7.62939e-06Z" fill="white"/>
</mask>
<g mask="url(#mask1_2125_10431)">
<path d="M55.293 73.9514L57.6855 60.6957C57.7453 60.3852 58.1783 60.3563 58.2789 60.6559L62.1711 73.8481C62.2654 74.1289 62.6635 74.127 62.7551 73.8451L66.5143 60.658C66.6117 60.3574 67.0449 60.3819 67.108 60.6916L69.6422 73.9514" stroke="#333333" stroke-width="2" stroke-miterlimit="10" stroke-linecap="round" stroke-linejoin="round"/>
<path d="M75.9453 60.4455V72.3633" stroke="#333333" stroke-width="2" stroke-miterlimit="10" stroke-linecap="round" stroke-linejoin="round"/>
<path d="M47.715 63.5777C47.715 65.3074 46.3125 66.7098 44.5828 66.7098C43.7248 66.7098 40.6289 66.7236 40.6289 66.7236V63.5777V60.4455H44.5828C46.3125 60.4455 47.715 61.8479 47.715 63.5777Z" stroke="#333333" stroke-width="2" stroke-miterlimit="10" stroke-linecap="round" stroke-linejoin="round"/>
<path d="M48.9373 70.3775C48.9373 72.401 47.2971 74.0414 45.2732 74.0414C44.2699 74.0414 40.6289 74.0576 40.6289 74.0576V70.3775V66.7135H45.2732C47.2971 66.7135 48.9373 68.3539 48.9373 70.3775Z" stroke="#333333" stroke-width="2" stroke-miterlimit="10" stroke-linecap="round" stroke-linejoin="round"/>
<path d="M18.6338 61.8449C18.6338 61.8449 16.1912 59.7916 13.3109 60.6594C10.6662 61.4561 10.2963 64.5057 12.2096 65.7531C12.2096 65.7531 14.0873 66.5908 16.1697 67.3588C21.1826 69.208 19.0232 74.0576 14.9877 74.0576C12.9668 74.0576 11.2707 73.1727 10.2441 72.0398" stroke="#333333" stroke-width="2" stroke-miterlimit="10" stroke-linecap="round" stroke-linejoin="round"/>
<path d="M24.9414 60.4455V69.8121C24.9414 71.4074 25.7328 72.4812 27.077 73.3402C27.7314 73.7584 28.5584 74.0564 29.5859 74.0576C30.4758 74.0588 31.2197 73.8529 31.8346 73.5432C33.401 72.7543 34.4 71.5564 34.4 69.8023V60.4455" stroke="#333333" stroke-width="2" stroke-miterlimit="10" stroke-linecap="round" stroke-linejoin="round"/>
<path d="M82.2383 60.4453H89.7557" stroke="#333333" stroke-width="2" stroke-miterlimit="10" stroke-linecap="round" stroke-linejoin="round"/>
<path d="M85.9824 60.8801V74.0576" stroke="#333333" stroke-width="2" stroke-miterlimit="10" stroke-linecap="round" stroke-linejoin="round"/>
<path d="M79.5605 50.0859H94.5889C96.7668 50.0859 98.5344 51.8535 98.5344 54.0332V80.4549V80.4705C98.5344 82.6502 96.7668 84.416 94.5889 84.416H91.7551" stroke="#333333" stroke-width="2" stroke-miterlimit="10" stroke-linecap="round" stroke-linejoin="round"/>
<path d="M14.6643 84.416H5.41016C3.23242 84.416 1.46484 82.6504 1.46484 80.4707V54.0332C1.46484 51.8535 3.23242 50.0859 5.41016 50.0859H72.7119" stroke="#333333" stroke-width="2" stroke-miterlimit="10" stroke-linecap="round" stroke-linejoin="round"/>
<path d="M75.4941 84.416H21.502" stroke="#333333" stroke-width="2" stroke-miterlimit="10" stroke-linecap="round" stroke-linejoin="round"/>
<path d="M87.1225 87.1232L98.5344 80.4545L70.6602 70.6609L80.4537 98.5352L87.1225 87.1232Z" stroke="#333333" stroke-width="2" stroke-miterlimit="10" stroke-linecap="round" stroke-linejoin="round"/>
</g>
</g>
<defs>
<clipPath id="clip0_2125_10431">
<rect width="100" height="100" fill="white"/>
</clipPath>
</defs>
</svg>
