<svg width="24" height="24" viewBox="0 0 24 24" fill="none" xmlns="http://www.w3.org/2000/svg">
<rect width="24" height="24" rx="2" fill="#848484"/>
<path d="M10.2783 14.2269L10.0136 18.1357C10.3923 18.1357 10.5563 17.9649 10.7529 17.7598L12.5283 15.9783L16.2071 18.807C16.8818 19.2018 17.3571 18.9939 17.5391 18.1553L19.9538 6.27498L19.9545 6.27428C20.1685 5.22708 19.5938 4.81758 18.9365 5.07448L4.7428 10.7802C3.77411 11.175 3.78878 11.7419 4.57813 11.9988L8.20689 13.1839L16.6358 7.64627C17.0324 7.37047 17.3931 7.52307 17.0964 7.79887L10.2783 14.2269Z" fill="white"/>
</svg>
