<svg width="60" height="60" viewBox="0 0 60 60" fill="none" xmlns="http://www.w3.org/2000/svg">
<path d="M58.125 40.3125H57.1875V32.8125C57.1862 31.8183 56.7907 30.8653 56.0877 30.1623C55.3847 29.4593 54.4317 29.0638 53.4375 29.0625V13.125C53.4362 12.1308 53.0407 11.1778 52.3377 10.4748C51.6347 9.77181 50.6817 9.3763 49.6875 9.375H10.3125C9.31834 9.3763 8.36527 9.77181 7.66229 10.4748C6.95931 11.1778 6.5638 12.1308 6.5625 13.125V29.0625C5.56834 29.0638 4.61527 29.4593 3.91229 30.1623C3.20931 30.8653 2.8138 31.8183 2.8125 32.8125V40.3125H1.875C1.62636 40.3125 1.3879 40.4113 1.21209 40.5871C1.03627 40.7629 0.9375 41.0014 0.9375 41.25V45C0.9375 45.2486 1.03627 45.4871 1.21209 45.6629C1.3879 45.8387 1.62636 45.9375 1.875 45.9375H2.8125V49.6875C2.8125 49.9361 2.91127 50.1746 3.08709 50.3504C3.2629 50.5262 3.50136 50.625 3.75 50.625H6.5625C6.77918 50.6251 6.98918 50.5501 7.15671 50.4127C7.32425 50.2752 7.43895 50.084 7.48125 49.8715L8.26875 45.9375H51.7313L52.5187 49.8715C52.5611 50.084 52.6758 50.2752 52.8433 50.4127C53.0108 50.5501 53.2208 50.6251 53.4375 50.625H56.25C56.4986 50.625 56.7371 50.5262 56.9129 50.3504C57.0887 50.1746 57.1875 49.9361 57.1875 49.6875V45.9375H58.125C58.3736 45.9375 58.6121 45.8387 58.7879 45.6629C58.9637 45.4871 59.0625 45.2486 59.0625 45V41.25C59.0625 41.0014 58.9637 40.7629 58.7879 40.5871C58.6121 40.4113 58.3736 40.3125 58.125 40.3125ZM8.4375 13.125C8.43815 12.6279 8.6359 12.1514 8.98739 11.7999C9.33888 11.4484 9.81542 11.2507 10.3125 11.25H49.6875C50.1846 11.2507 50.6611 11.4484 51.0126 11.7999C51.3641 12.1514 51.5618 12.6279 51.5625 13.125V29.0625H49.6875V25.3125C49.6862 24.3183 49.2907 23.3653 48.5877 22.6623C47.8847 21.9593 46.9317 21.5638 45.9375 21.5625H34.6875C33.6933 21.5638 32.7403 21.9593 32.0373 22.6623C31.3343 23.3653 30.9388 24.3183 30.9375 25.3125V29.0625H29.0625V25.3125C29.0612 24.3183 28.6657 23.3653 27.9627 22.6623C27.2597 21.9593 26.3067 21.5638 25.3125 21.5625H14.0625C13.0683 21.5638 12.1153 21.9593 11.4123 22.6623C10.7093 23.3653 10.3138 24.3183 10.3125 25.3125V29.0625H8.4375V13.125ZM47.8125 25.3125V29.0625H32.8125V25.3125C32.8132 24.8154 33.0109 24.3389 33.3624 23.9874C33.7139 23.6359 34.1904 23.4382 34.6875 23.4375H45.9375C46.4346 23.4382 46.9111 23.6359 47.2626 23.9874C47.6141 24.3389 47.8118 24.8154 47.8125 25.3125ZM27.1875 25.3125V29.0625H12.1875V25.3125C12.1882 24.8154 12.3859 24.3389 12.7374 23.9874C13.0889 23.6359 13.5654 23.4382 14.0625 23.4375H25.3125C25.8096 23.4382 26.2861 23.6359 26.6376 23.9874C26.9891 24.3389 27.1868 24.8154 27.1875 25.3125ZM4.6875 32.8125C4.68815 32.3154 4.8859 31.8389 5.23739 31.4874C5.58888 31.1359 6.06542 30.9382 6.5625 30.9375H53.4375C53.9346 30.9382 54.4111 31.1359 54.7626 31.4874C55.1141 31.8389 55.3118 32.3154 55.3125 32.8125V40.3125H4.6875V32.8125ZM5.79375 48.75H4.6875V45.9375H6.35625L5.79375 48.75ZM55.3125 48.75H54.2062L53.6438 45.9375H55.3125V48.75ZM57.1875 44.0625H2.8125V42.1875H57.1875V44.0625Z" fill="#E8A43F"/>
</svg>
