<svg width="100" height="92" viewBox="0 0 100 92" fill="none" xmlns="http://www.w3.org/2000/svg">
<path d="M23.0012 43.4331C23.0175 42.6423 23.2072 41.1236 24.8018 38.7731C35.6153 28.7083 51.0869 22.3684 61.5621 23.0501C66.0601 23.3428 68.6733 24.7859 70.5965 27.0375C72.8499 29.6758 76.2933 36.0016 76.9395 49.8699C77.6195 64.4597 72.7997 66.8061 71.4227 67.4765L71.3899 67.4925C67.5098 69.3843 59.0919 70.0863 47.9762 65.9984C37.14 62.0134 28.7151 55.2202 24.9985 49.205C23.2939 46.4462 22.9783 44.5434 23.0012 43.4331Z" stroke="#FFF1D8" stroke-width="46"/>
<ellipse cx="60" cy="73.5" rx="24" ry="3.5" fill="#EAD9BF"/>
<path d="M29.9891 11.1304H70.0109C74.4162 11.1304 78 14.7143 78 19.1194V46.1306C78 50.5358 74.4162 54.1197 70.0109 54.1197H66.8759L66.8145 61.1725C66.8091 61.8225 66.4358 62.4132 65.8511 62.6974C65.6135 62.8129 65.3576 62.8697 65.1029 62.8697C64.7312 62.8697 64.3621 62.7487 64.0568 62.513L53.1823 54.1199H29.9891C25.5839 54.1199 22 50.536 22 46.1308V19.1194C22 14.7143 25.5839 11.1304 29.9891 11.1304Z" fill="#E8A43F"/>
<g clip-path="url(#clip0_1990_10243)">
<path opacity="0.7" d="M59.1864 34.027C58.5413 35.7753 57.5657 37.2955 56.2864 38.5448C54.8301 39.9668 52.9233 41.0968 50.6187 41.9028C50.5431 41.9291 50.4642 41.9508 50.3849 41.9667C50.2802 41.9874 50.1736 41.9985 50.0679 42H50.0472C49.9346 42 49.8215 41.9887 49.7092 41.9667C49.6299 41.9508 49.5521 41.9291 49.4769 41.9033C47.1696 41.0986 45.2603 39.9692 43.8026 38.5472C42.5227 37.2979 41.5473 35.7786 40.9031 34.0303C39.7318 30.8516 39.7985 27.3499 39.8521 24.5359L39.853 24.4927C39.8638 24.2604 39.8708 24.0163 39.8746 23.7468C39.8942 22.4235 40.9463 21.3287 42.2698 21.2549C45.0292 21.1009 47.1639 20.2009 48.9878 18.4231L49.0037 18.4085C49.3066 18.1307 49.6882 17.9945 50.0679 18.0002C50.4341 18.0049 50.7989 18.141 51.0909 18.4085L51.1065 18.4231C52.9308 20.2009 55.0654 21.1009 57.8248 21.2549C59.1483 21.3287 60.2005 22.4235 60.22 23.7468C60.2239 24.0181 60.2308 24.2618 60.2416 24.4927L60.2422 24.511C60.2957 27.3303 60.3619 30.839 59.1864 34.027Z" fill="white"/>
<path d="M59.1849 34.0271C58.5398 35.7754 57.5642 37.2955 56.2849 38.5449C54.8286 39.9669 52.9218 41.0968 50.6172 41.9029C50.5416 41.9292 50.4626 41.9508 50.3834 41.9668C50.2786 41.9874 50.1721 41.9986 50.0664 42.0001V18.0002C50.4326 18.005 50.7974 18.1411 51.0894 18.4086L51.105 18.4232C52.9293 20.201 55.0639 21.101 57.8233 21.2549C59.1468 21.3287 60.1989 22.4235 60.2185 23.7468C60.2224 24.0182 60.2293 24.2619 60.2401 24.4928L60.2407 24.5111C60.2941 27.3304 60.3604 30.8391 59.1849 34.0271Z" fill="white"/>
</g>
<defs>
<clipPath id="clip0_1990_10243">
<rect width="24" height="24" fill="white" transform="translate(38 18)"/>
</clipPath>
</defs>
</svg>
