<svg width="60" height="60" viewBox="0 0 60 60" fill="none" xmlns="http://www.w3.org/2000/svg">
<path d="M52.3433 12.6047L48.5933 6.97969C48.5073 6.8515 48.3912 6.74641 48.2551 6.67366C48.119 6.60091 47.9671 6.56274 47.8128 6.5625H33.7503V1.875C33.7503 1.62636 33.6515 1.3879 33.4757 1.21209C33.2999 1.03627 33.0614 0.9375 32.8128 0.9375H27.1878C26.9392 0.9375 26.7007 1.03627 26.5249 1.21209C26.3491 1.3879 26.2503 1.62636 26.2503 1.875V6.5625H15.9378C15.6892 6.5625 15.4507 6.66127 15.2749 6.83709C15.0991 7.0129 15.0003 7.25136 15.0003 7.5V18.75C15.0003 18.9986 15.0991 19.2371 15.2749 19.4129C15.4507 19.5887 15.6892 19.6875 15.9378 19.6875H26.2503V23.4375H12.1878C12.0335 23.4377 11.8816 23.4759 11.7455 23.5487C11.6094 23.6214 11.4933 23.7265 11.4073 23.8547L7.65733 29.4797C7.55474 29.6338 7.5 29.8148 7.5 30C7.5 30.1852 7.55474 30.3662 7.65733 30.5203L11.4073 36.1453C11.4933 36.2735 11.6094 36.3786 11.7455 36.4513C11.8816 36.5241 12.0335 36.5623 12.1878 36.5625H26.2503V57.1875H16.8753C16.6267 57.1875 16.3882 57.2863 16.2124 57.4621C16.0366 57.6379 15.9378 57.8764 15.9378 58.125C15.9378 58.3736 16.0366 58.6121 16.2124 58.7879C16.3882 58.9637 16.6267 59.0625 16.8753 59.0625H39.3753C39.6239 59.0625 39.8624 58.9637 40.0382 58.7879C40.214 58.6121 40.3128 58.3736 40.3128 58.125C40.3128 57.8764 40.214 57.6379 40.0382 57.4621C39.8624 57.2863 39.6239 57.1875 39.3753 57.1875H33.7503V36.5625H44.0628C44.3114 36.5625 44.5499 36.4637 44.7257 36.2879C44.9015 36.1121 45.0003 35.8736 45.0003 35.625V24.375C45.0003 24.1264 44.9015 23.8879 44.7257 23.7121C44.5499 23.5363 44.3114 23.4375 44.0628 23.4375H33.7503V19.6875H47.8128C47.9671 19.6873 48.119 19.6491 48.2551 19.5763C48.3912 19.5036 48.5073 19.3985 48.5933 19.2703L52.3433 13.6453C52.4459 13.4912 52.5006 13.3102 52.5006 13.125C52.5006 12.9398 52.4459 12.7588 52.3433 12.6047ZM28.1253 2.8125H31.8753V6.5625H28.1253V2.8125ZM31.8753 57.1875H28.1253V36.5625H31.8753V57.1875ZM43.1253 25.3125V34.6875H12.6894L9.56397 30L12.6894 25.3125H43.1253ZM28.1253 23.4375V19.6875H31.8753V23.4375H28.1253ZM47.3112 17.8125H16.8753V8.4375H47.3112L50.4366 13.125L47.3112 17.8125Z" fill="#E8A43F"/>
<path d="M43.125 57.1875H42.1875C41.9389 57.1875 41.7004 57.2863 41.5246 57.4621C41.3488 57.6379 41.25 57.8764 41.25 58.125C41.25 58.3736 41.3488 58.6121 41.5246 58.7879C41.7004 58.9637 41.9389 59.0625 42.1875 59.0625H43.125C43.3736 59.0625 43.6121 58.9637 43.7879 58.7879C43.9637 58.6121 44.0625 58.3736 44.0625 58.125C44.0625 57.8764 43.9637 57.6379 43.7879 57.4621C43.6121 57.2863 43.3736 57.1875 43.125 57.1875Z" fill="#E8A43F"/>
</svg>
