<svg width="60" height="60" viewBox="0 0 60 60" fill="none" xmlns="http://www.w3.org/2000/svg">
<path d="M30 1.875C15 1.875 2.8125 14.4937 2.8125 30C2.8125 45.5063 15 58.125 30 58.125C45 58.125 57.1875 45.5063 57.1875 30C57.1875 14.4937 45 1.875 30 1.875ZM30 56.25C16.0406 56.25 4.6875 44.475 4.6875 30C4.6875 15.525 16.0406 3.75 30 3.75C43.9594 3.75 55.3125 15.525 55.3125 30C55.3125 44.475 43.9594 56.25 30 56.25Z" fill="#E8A43F"/>
<path d="M44.0626 12.3656C44.1228 11.7578 43.9395 11.151 43.5528 10.6782C43.1661 10.2054 42.6077 9.90533 42.0001 9.84375C41.3924 9.90533 40.834 10.2054 40.4474 10.6782C40.0607 11.151 39.8774 11.7578 39.9376 12.3656V20.8031C39.9171 21.0267 39.8699 21.247 39.797 21.4594C39.7139 21.3726 39.6501 21.2694 39.6097 21.1563C39.5693 21.0432 39.5533 20.9228 39.5626 20.8031V12.3656C39.6228 11.7578 39.4395 11.151 39.0528 10.6782C38.6661 10.2054 38.1077 9.90533 37.5001 9.84375C36.8924 9.90533 36.334 10.2054 35.9474 10.6782C35.5607 11.151 35.3774 11.7578 35.4376 12.3656V20.8031C35.4171 21.0267 35.3699 21.247 35.297 21.4594C35.2139 21.3726 35.1501 21.2694 35.1097 21.1563C35.0693 21.0432 35.0533 20.9228 35.0626 20.8031V12.3656C35.1228 11.7578 34.9395 11.151 34.5528 10.6782C34.1662 10.2054 33.6077 9.90533 33.0001 9.84375C32.5772 9.86287 32.1704 10.0117 31.8349 10.27C31.4995 10.5283 31.2517 10.8835 31.1251 11.2875C29.0017 11.1478 26.8709 11.4086 24.8438 12.0562C24.3494 11.3969 23.7142 10.8562 22.9844 10.4735C22.2546 10.0907 21.4486 9.87559 20.6251 9.84375C17.0063 9.84375 14.0626 14.0531 14.0626 19.2188C14.0691 19.9129 14.1286 20.6055 14.2407 21.2906C12.8889 23.9948 12.1859 26.9768 12.1876 30C12.1798 32.5322 12.6728 35.0409 13.6382 37.3819C14.6035 39.7229 16.0222 41.8499 17.8126 43.6406V47.3906C17.8026 48.1365 18.0894 48.8559 18.6098 49.3903C19.1302 49.9248 19.8417 50.2307 20.5876 50.2406C21.3335 50.2506 22.0528 49.9638 22.5873 49.4434C23.1218 48.923 23.4276 48.2115 23.4376 47.4656C25.5164 48.3309 27.7485 48.7677 30.0001 48.75C31.6217 48.7456 33.2345 48.512 34.7907 48.0562C34.9478 48.6559 35.2985 49.187 35.7885 49.5667C36.2785 49.9465 36.8802 50.1537 37.5001 50.1562C38.246 50.1562 38.9614 49.8599 39.4888 49.3325C40.0163 48.805 40.3126 48.0897 40.3126 47.3438V45.2719C42.6635 43.4842 44.5653 41.1732 45.8672 38.5222C47.1691 35.8712 47.8352 32.9533 47.8126 30C47.8203 25.8698 46.5062 21.8454 44.0626 18.5156V12.3656ZM17.8126 40.8281C15.9909 38.5045 14.7828 35.76 14.2995 32.8472C13.8162 29.9344 14.0733 26.9468 15.047 24.1594C15.6127 25.5824 16.572 26.8148 17.8126 27.7125V40.8281ZM22.0595 26.3531C21.9084 26.4336 21.7822 26.5539 21.6946 26.701C21.607 26.8481 21.5613 27.0163 21.5626 27.1875V47.3438C21.5626 47.5924 21.4638 47.8308 21.288 48.0067C21.1122 48.1825 20.8737 48.2812 20.6251 48.2812C20.3764 48.2812 20.138 48.1825 19.9622 48.0067C19.7864 47.8308 19.6876 47.5924 19.6876 47.3438V27.1875C19.6871 27.0179 19.6407 26.8516 19.5532 26.7063C19.4657 26.561 19.3404 26.4422 19.1907 26.3625C17.2782 25.3125 15.9376 22.4062 15.9376 19.2188C15.9376 15.15 18.0845 11.7188 20.6251 11.7188C23.1657 11.7188 25.3126 15.15 25.3126 19.2188C25.3126 22.4062 23.972 25.3125 22.0595 26.3531ZM34.6876 46.1156C30.9834 47.3432 26.9461 47.074 23.4376 45.3656V27.7125C25.697 26.1938 27.1876 22.875 27.1876 19.2188C27.2059 17.3072 26.7723 15.4184 25.922 13.7062C27.5517 13.2468 29.248 13.0692 30.9376 13.1813V22.3875C30.9376 25.3875 32.5501 27.8906 34.6876 28.4719V46.1156ZM39.3751 26.7188C39.1265 26.7188 38.888 26.8175 38.7122 26.9933C38.5364 27.1692 38.4376 27.4076 38.4376 27.6562V47.3438C38.4359 47.4685 38.4093 47.5916 38.3594 47.7059C38.3095 47.8201 38.2372 47.9233 38.147 48.0094C38.0639 48.097 37.9634 48.1665 37.8521 48.2133C37.7407 48.2601 37.6209 48.2832 37.5001 48.2812C37.2514 48.2812 37.013 48.1825 36.8372 48.0067C36.6614 47.8308 36.5626 47.5924 36.5626 47.3438V27.6562C36.5626 27.4076 36.4638 27.1692 36.288 26.9933C36.1122 26.8175 35.8737 26.7188 35.6251 26.7188C34.097 26.7188 32.8126 24.7312 32.8126 22.3875V12.3656C32.8331 12.142 32.8803 11.9217 32.9532 11.7094C33.0363 11.7961 33.1001 11.8994 33.1405 12.0125C33.1809 12.1256 33.1969 12.2459 33.1876 12.3656V20.8031C33.1274 21.4109 33.3107 22.0178 33.6974 22.4905C34.084 22.9633 34.6424 23.2634 35.2501 23.325C35.8577 23.2634 36.4162 22.9633 36.8028 22.4905C37.1895 22.0178 37.3728 21.4109 37.3126 20.8031V12.3656C37.3331 12.142 37.3803 11.9217 37.4532 11.7094C37.5363 11.7961 37.6001 11.8994 37.6405 12.0125C37.6809 12.1256 37.6969 12.2459 37.6876 12.3656V20.8031C37.6274 21.4109 37.8107 22.0178 38.1974 22.4905C38.584 22.9633 39.1424 23.2634 39.7501 23.325C40.3577 23.2634 40.9162 22.9633 41.3028 22.4905C41.6895 22.0178 41.8728 21.4109 41.8126 20.8031V12.3656C41.8331 12.142 41.8803 11.9217 41.9532 11.7094C42.0363 11.7961 42.1001 11.8994 42.1405 12.0125C42.1809 12.1256 42.1969 12.2459 42.1876 12.3656V22.3875C42.1876 24.7312 40.9032 26.7188 39.3751 26.7188ZM45.9376 30C45.9539 32.4171 45.4616 34.8106 44.4925 37.025C43.5234 39.2394 42.0992 41.2251 40.3126 42.8531V28.4719C42.4501 27.8906 44.0626 25.3875 44.0626 22.3875V22.0875C45.2961 24.5427 45.9382 27.2524 45.9376 30Z" fill="#E8A43F"/>
</svg>
