<svg width="36" height="36" viewBox="0 0 36 36" fill="none" xmlns="http://www.w3.org/2000/svg">
<circle cx="18" cy="18" r="18" fill="#2A6BBC"/>
<circle cx="18" cy="18" r="12" fill="white"/>
<path d="M23.3346 14L16.0013 21.3333L12.668 18" stroke="#2A6BBC" stroke-linecap="round" stroke-linejoin="round"/>
</svg>
